{"failedCount":0,"prefixedPath":"kdemo\/src\/test\/java\/demo\/features\/BearerToken.feature","packageQualifiedName":"kdemo.src.test.java.demo.features.BearerToken","loopIndex":-1,"relativePath":"kdemo\/src\/test\/java\/demo\/features\/BearerToken.feature","scenarioResults":[{"sectionIndex":0,"stepResults":[{"result":{"nanos":32216166,"millis":32.216166,"status":"passed"},"step":{"line":4,"prefix":"*","index":0,"text":"def tokenID = '94120e9960c309eae23dc20b5cfce4c7c790e09f2499b11d8446d3d40abff504'"}},{"result":{"nanos":376708,"millis":0.376708,"status":"passed"},"step":{"line":5,"prefix":"*","index":1,"text":"def baseUrl1 = 'https:\/\/gorest.co.in'"}},{"result":{"nanos":29046667,"millis":29.046667,"status":"passed"},"step":{"line":6,"prefix":"*","index":2,"text":"print tokenID"},"stepLog":"12:49:49.143 [print] 94120e9960c309eae23dc20b5cfce4c7c790e09f2499b11d8446d3d40abff504 \n"},{"result":{"nanos":6764667,"millis":6.764667,"status":"passed"},"step":{"line":7,"prefix":"Given","index":3,"text":"header Authorization = 'Bearer' + tokenID"}},{"result":{"nanos":539542,"millis":0.539542,"status":"passed"},"step":{"line":8,"prefix":"Given","index":4,"text":"url baseUrl1+'\/public\/v1\/users'"}},{"result":{"nanos":773393917,"millis":773.393917,"status":"passed"},"step":{"line":9,"prefix":"When","index":5,"text":"method Get"},"stepLog":"12:49:49.263 request:\n1 > GET https:\/\/gorest.co.in\/public\/v1\/users\n1 > Authorization: Bearer94120e9960c309eae23dc20b5cfce4c7c790e09f2499b11d8446d3d40abff504\n1 > Host: gorest.co.in\n1 > Connection: Keep-Alive\n1 > User-Agent: Apache-HttpClient\/4.5.14 (Java\/17.0.6)\n1 > Accept-Encoding: gzip,deflate\n\n\n12:49:49.903 response time in milliseconds: 635\n1 < 200\n1 < Date: Fri, 07 Apr 2023 07:19:50 GMT\n1 < Content-Type: application\/json; charset=utf-8\n1 < Transfer-Encoding: chunked\n1 < Connection: keep-alive\n1 < Cache-Control: max-age=0, private, must-revalidate\n1 < etag: W\/\"1253e5bdbc3915152b03d16f6af93463\"\n1 < referrer-policy: strict-origin-when-cross-origin\n1 < vary: Origin\n1 < x-content-type-options: nosniff\n1 < x-download-options: noopen\n1 < x-frame-options: SAMEORIGIN\n1 < x-permitted-cross-domain-policies: none\n1 < x-request-id: cdffbcff-b60c-4ceb-bf34-62551d7d9f47\n1 < x-runtime: 0.039730\n1 < x-xss-protection: 0\n1 < CF-Cache-Status: DYNAMIC\n1 < Report-To: {\"endpoints\":[{\"url\":\"https:\\\/\\\/a.nel.cloudflare.com\\\/report\\\/v3?s=z0xzhvlIHaqIOFlld3mEwCHlSuKvTQdw7HoUIvMCLG4MTHnx9W1a%2BMyP3siSxZW8wUp1l7B9RLQzv0fDzRVRPRMAJ3NmfjsieK2X%2Byam2xKvEdH1sF5OuyQDTYUhR08%3D\"}],\"group\":\"cf-nel\",\"max_age\":604800}\n1 < NEL: {\"success_fraction\":0,\"report_to\":\"cf-nel\",\"max_age\":604800}\n1 < Server: cloudflare\n1 < CF-RAY: 7b4081278d85f33f-BOM\n1 < alt-svc: h3=\":443\"; ma=86400, h3-29=\":443\"; ma=86400\n{\"meta\":{\"pagination\":{\"total\":2490,\"pages\":249,\"page\":1,\"limit\":10,\"links\":{\"previous\":null,\"current\":\"https:\/\/gorest.co.in\/public\/v1\/users?page=1\",\"next\":\"https:\/\/gorest.co.in\/public\/v1\/users?page=2\"}}},\"data\":[{\"id\":802595,\"name\":\"Rukmin Asan\",\"email\":\"asan_rukmin@koch.biz\",\"gender\":\"male\",\"status\":\"inactive\"},{\"id\":789811,\"name\":\"Girindra Embranthiri\",\"email\":\"embranthiri_girindra@vandervort.com\",\"gender\":\"male\",\"status\":\"active\"},{\"id\":788863,\"name\":\"Ekaparnika Chaturvedi\",\"email\":\"ekaparnika_chaturvedi@pfeffer.name\",\"gender\":\"male\",\"status\":\"active\"},{\"id\":788862,\"name\":\"Ekaaksh Gandhi\",\"email\":\"gandhi_ekaaksh@abernathy.io\",\"gender\":\"male\",\"status\":\"inactive\"},{\"id\":784654,\"name\":\"Guru Malik\",\"email\":\"guru_malik@gibson.info\",\"gender\":\"female\",\"status\":\"active\"},{\"id\":781187,\"name\":\"Girika Dwivedi\",\"email\":\"girika_dwivedi@schiller.name\",\"gender\":\"female\",\"status\":\"active\"},{\"id\":781181,\"name\":\"Narinder Kaur\",\"email\":\"kaur_narinder@schumm-durgan.io\",\"gender\":\"male\",\"status\":\"inactive\"},{\"id\":781179,\"name\":\"Gandharv Agarwal\",\"email\":\"gandharv_agarwal@balistreri.biz\",\"gender\":\"male\",\"status\":\"active\"},{\"id\":781178,\"name\":\"Dayamayee Guneta DDS\",\"email\":\"dds_guneta_dayamayee@mosciski-carroll.name\",\"gender\":\"male\",\"status\":\"inactive\"},{\"id\":781177,\"name\":\"Vaishvi Khatri\",\"email\":\"khatri_vaishvi@emmerich.io\",\"gender\":\"female\",\"status\":\"inactive\"}]}\n\n"},{"result":{"nanos":19458,"millis":0.019458,"status":"passed"},"step":{"line":10,"prefix":"Then","index":6,"text":"status 200"}}],"executorName":"main","line":3,"name":"Validation using Bearer token","description":"","durationMillis":842.357125,"startTime":1680851989077,"failed":false,"refId":"[1:3]","endTime":1680851989925,"exampleIndex":-1}],"callDepth":0,"name":"Bearer token validation","description":"","resultDate":"2023-04-07 12:49:49 pm","durationMillis":842.357125,"passedCount":1}