{"failedCount":0,"prefixedPath":"classpath:demo\/features\/BearerToken.feature","packageQualifiedName":"demo.features.BearerToken","loopIndex":-1,"relativePath":"demo\/features\/BearerToken.feature","scenarioResults":[{"sectionIndex":0,"stepResults":[{"result":{"nanos":1106583,"millis":1.106583,"status":"passed"},"step":{"line":4,"prefix":"*","index":0,"text":"def tokenID = '94120e9960c309eae23dc20b5cfce4c7c790e09f2499b11d8446d3d40abff504'"}},{"result":{"nanos":1223833,"millis":1.223833,"status":"passed"},"step":{"line":5,"prefix":"*","index":1,"text":"def baseUrl1 = 'https:\/\/gorest.co.in'"}},{"result":{"nanos":6365416,"millis":6.365416,"status":"passed"},"step":{"line":6,"prefix":"Given","index":2,"text":"url baseUrl1+'\/public\/v1\/users'"}},{"result":{"nanos":457583,"millis":0.457583,"status":"passed"},"step":{"line":7,"prefix":"And","index":3,"text":"header Authorization = 'Bearer' + tokenID"}},{"result":{"nanos":406486167,"millis":406.486167,"status":"passed"},"step":{"line":8,"prefix":"When","index":4,"text":"method Get"},"stepLog":"10:40:44.118 request:\n1 > GET https:\/\/gorest.co.in\/public\/v1\/users\n1 > Authorization: Bearer94120e9960c309eae23dc20b5cfce4c7c790e09f2499b11d8446d3d40abff504\n1 > Host: gorest.co.in\n1 > Connection: Keep-Alive\n1 > User-Agent: Apache-HttpClient\/4.5.13 (Java\/20)\n1 > Accept-Encoding: gzip,deflate\n\n\n10:40:44.416 response time in milliseconds: 298\n1 < 200\n1 < Date: Thu, 13 Apr 2023 05:10:44 GMT\n1 < Content-Type: application\/json; charset=utf-8\n1 < Transfer-Encoding: chunked\n1 < Connection: keep-alive\n1 < Cache-Control: max-age=0, private, must-revalidate\n1 < etag: W\/\"a3b74fe4a2b965abc126eeccc7608ae1\"\n1 < referrer-policy: strict-origin-when-cross-origin\n1 < vary: Origin\n1 < x-content-type-options: nosniff\n1 < x-download-options: noopen\n1 < x-frame-options: SAMEORIGIN\n1 < x-permitted-cross-domain-policies: none\n1 < x-request-id: 8dd1bf7d-72e7-4501-8451-e774e6f84fe6\n1 < x-runtime: 0.039153\n1 < x-xss-protection: 0\n1 < CF-Cache-Status: DYNAMIC\n1 < Report-To: {\"endpoints\":[{\"url\":\"https:\\\/\\\/a.nel.cloudflare.com\\\/report\\\/v3?s=BWhimP7HxGp6Foy1d9Jr7K01ff8nFO7jayUBdrfGcuyndQm9188ECgefHHGKvoaSeud7KdZG5W43SQH6TWWMHvCuAblaqQvXf6T4owRxnni4K%2FVeCIwkWwJVRwWOnMs%3D\"}],\"group\":\"cf-nel\",\"max_age\":604800}\n1 < NEL: {\"success_fraction\":0,\"report_to\":\"cf-nel\",\"max_age\":604800}\n1 < Server: cloudflare\n1 < CF-RAY: 7b71344f3e463c01-BLR\n1 < alt-svc: h3=\":443\"; ma=86400, h3-29=\":443\"; ma=86400\n{\"meta\":{\"pagination\":{\"total\":2500,\"pages\":250,\"page\":1,\"limit\":10,\"links\":{\"previous\":null,\"current\":\"https:\/\/gorest.co.in\/public\/v1\/users?page=1\",\"next\":\"https:\/\/gorest.co.in\/public\/v1\/users?page=2\"}}},\"data\":[{\"id\":955317,\"name\":\"Chandrabhaga Mukhopadhyay LLD\",\"email\":\"mukhopadhyay_lld_chandrabhaga@herzog.io\",\"gender\":\"female\",\"status\":\"active\"},{\"id\":955316,\"name\":\"Pres. Gandharva Pilla\",\"email\":\"gandharva_pilla_pres@jast.io\",\"gender\":\"female\",\"status\":\"inactive\"},{\"id\":955315,\"name\":\"Deeptendu Nehru\",\"email\":\"nehru_deeptendu@tremblay.net\",\"gender\":\"male\",\"status\":\"inactive\"},{\"id\":955314,\"name\":\"Baijayanti Bhattacharya\",\"email\":\"bhattacharya_baijayanti@white.info\",\"gender\":\"male\",\"status\":\"inactive\"},{\"id\":954694,\"name\":\"Deepali Devar\",\"email\":\"devar_deepali@hamill.name\",\"gender\":\"male\",\"status\":\"active\"},{\"id\":954693,\"name\":\"Chandra Gill II\",\"email\":\"chandra_gill_ii@harvey.co\",\"gender\":\"male\",\"status\":\"active\"},{\"id\":954691,\"name\":\"Anand Iyengar\",\"email\":\"iyengar_anand@witting.name\",\"gender\":\"male\",\"status\":\"inactive\"},{\"id\":954690,\"name\":\"Anala Johar Jr.\",\"email\":\"jr_johar_anala@beahan-mohr.net\",\"gender\":\"female\",\"status\":\"active\"},{\"id\":954689,\"name\":\"Vedang Marar\",\"email\":\"marar_vedang@deckow.biz\",\"gender\":\"female\",\"status\":\"active\"},{\"id\":954687,\"name\":\"Bhagwanti Jha\",\"email\":\"bhagwanti_jha@kerluke.co\",\"gender\":\"female\",\"status\":\"inactive\"}]}\n\n"},{"result":{"nanos":43500,"millis":0.0435,"status":"passed"},"step":{"line":9,"prefix":"Then","index":5,"text":"status 200"}}],"executorName":"pool-1-thread-4","line":3,"name":"Validation using Bearer token","description":"","durationMillis":415.683082,"startTime":1681362643929,"failed":false,"refId":"[1:3]","endTime":1681362644417,"exampleIndex":-1}],"callDepth":0,"name":"Bearer token validation","description":"","resultDate":"2023-04-13 10:40:45 am","durationMillis":415.683082,"passedCount":1}