{"failedCount":0,"prefixedPath":"classpath:demo\/features\/GetCallDemo.feature","packageQualifiedName":"demo.features.GetCallDemo","loopIndex":-1,"relativePath":"demo\/features\/GetCallDemo.feature","scenarioResults":[{"sectionIndex":0,"stepResults":[{"result":{"nanos":602042,"millis":0.602042,"status":"passed"},"step":{"background":true,"line":4,"prefix":"*","index":0,"text":"url 'https:\/\/reqres.in\/api'"}},{"result":{"nanos":1092042,"millis":1.092042,"status":"passed"},"step":{"background":true,"line":5,"prefix":"*","index":1,"text":"header Accept = 'application\/json'"}},{"result":{"nanos":206250,"millis":0.20625,"status":"passed"},"step":{"line":7,"prefix":"Given","index":0,"text":"url 'https:\/\/reqres.in\/api\/users?page=2'"}},{"result":{"nanos":301904334,"millis":301.904334,"status":"passed"},"step":{"line":8,"prefix":"When","index":1,"text":"method GET"},"stepLog":"10:40:44.118 request:\n1 > GET https:\/\/reqres.in\/api\/users?page=2\n1 > Accept: application\/json\n1 > Host: reqres.in\n1 > Connection: Keep-Alive\n1 > User-Agent: Apache-HttpClient\/4.5.13 (Java\/20)\n1 > Accept-Encoding: gzip,deflate\n\n\n10:40:44.299 response time in milliseconds: 180\n1 < 200\n1 < Date: Thu, 13 Apr 2023 05:10:44 GMT\n1 < Content-Type: application\/json; charset=utf-8\n1 < Transfer-Encoding: chunked\n1 < Connection: keep-alive\n1 < X-Powered-By: Express\n1 < Access-Control-Allow-Origin: *\n1 < Etag: W\/\"406-ut0vzoCuidvyMf8arZpMpJ6ZRDw\"\n1 < Via: 1.1 vegur\n1 < Cache-Control: max-age=14400\n1 < CF-Cache-Status: HIT\n1 < Age: 1697\n1 < Report-To: {\"endpoints\":[{\"url\":\"https:\\\/\\\/a.nel.cloudflare.com\\\/report\\\/v3?s=VIDJvWXlwqSlL470gyTRJwpw%2FhwUEpd%2BUa%2BSshfJ0JbSOzKK9MYAj78ZAKWo3PoeUaLQ7aVCWXfCigJnEZyQBHTiGGMEAwBI19%2FhEt1AjI1stK36Roi7ZVr1Bw%3D%3D\"}],\"group\":\"cf-nel\",\"max_age\":604800}\n1 < NEL: {\"success_fraction\":0,\"report_to\":\"cf-nel\",\"max_age\":604800}\n1 < Vary: Accept-Encoding\n1 < Server: cloudflare\n1 < CF-RAY: 7b71344f3d483c0c-BLR\n{\"page\":2,\"per_page\":6,\"total\":12,\"total_pages\":2,\"data\":[{\"id\":7,\"email\":\"michael.lawson@reqres.in\",\"first_name\":\"Michael\",\"last_name\":\"Lawson\",\"avatar\":\"https:\/\/reqres.in\/img\/faces\/7-image.jpg\"},{\"id\":8,\"email\":\"lindsay.ferguson@reqres.in\",\"first_name\":\"Lindsay\",\"last_name\":\"Ferguson\",\"avatar\":\"https:\/\/reqres.in\/img\/faces\/8-image.jpg\"},{\"id\":9,\"email\":\"tobias.funke@reqres.in\",\"first_name\":\"Tobias\",\"last_name\":\"Funke\",\"avatar\":\"https:\/\/reqres.in\/img\/faces\/9-image.jpg\"},{\"id\":10,\"email\":\"byron.fields@reqres.in\",\"first_name\":\"Byron\",\"last_name\":\"Fields\",\"avatar\":\"https:\/\/reqres.in\/img\/faces\/10-image.jpg\"},{\"id\":11,\"email\":\"george.edwards@reqres.in\",\"first_name\":\"George\",\"last_name\":\"Edwards\",\"avatar\":\"https:\/\/reqres.in\/img\/faces\/11-image.jpg\"},{\"id\":12,\"email\":\"rachel.howell@reqres.in\",\"first_name\":\"Rachel\",\"last_name\":\"Howell\",\"avatar\":\"https:\/\/reqres.in\/img\/faces\/12-image.jpg\"}],\"support\":{\"url\":\"https:\/\/reqres.in\/#support-heading\",\"text\":\"To keep ReqRes free, contributions towards server costs are appreciated!\"}}\n\n"},{"result":{"nanos":1514792,"millis":1.514792,"status":"passed"},"step":{"line":9,"prefix":"Then","index":2,"text":"status 200"}}],"line":6,"description":"","durationMillis":305.31946,"failed":false,"tags":["debug"],"executorName":"pool-1-thread-5","name":"Run a sample Get API","startTime":1681362643929,"refId":"[1:6]","endTime":1681362644303,"exampleIndex":-1},{"sectionIndex":1,"stepResults":[{"result":{"nanos":239083,"millis":0.239083,"status":"passed"},"step":{"background":true,"line":4,"prefix":"*","index":0,"text":"url 'https:\/\/reqres.in\/api'"}},{"result":{"nanos":177000,"millis":0.177,"status":"passed"},"step":{"background":true,"line":5,"prefix":"*","index":1,"text":"header Accept = 'application\/json'"}},{"result":{"nanos":149667,"millis":0.149667,"status":"passed"},"step":{"line":12,"prefix":"Given","index":0,"text":"url 'https:\/\/reqres.in\/api\/users?page=2'"}},{"result":{"nanos":43456667,"millis":43.456667,"status":"passed"},"step":{"line":13,"prefix":"When","index":1,"text":"method GET"},"stepLog":"10:40:44.311 request:\n1 > GET https:\/\/reqres.in\/api\/users?page=2\n1 > Accept: application\/json\n1 > Host: reqres.in\n1 > Connection: Keep-Alive\n1 > User-Agent: Apache-HttpClient\/4.5.13 (Java\/20)\n1 > Accept-Encoding: gzip,deflate\n\n\n10:40:44.354 response time in milliseconds: 42\n1 < 200\n1 < Date: Thu, 13 Apr 2023 05:10:44 GMT\n1 < Content-Type: application\/json; charset=utf-8\n1 < Transfer-Encoding: chunked\n1 < Connection: keep-alive\n1 < X-Powered-By: Express\n1 < Access-Control-Allow-Origin: *\n1 < Etag: W\/\"406-ut0vzoCuidvyMf8arZpMpJ6ZRDw\"\n1 < Via: 1.1 vegur\n1 < Cache-Control: max-age=14400\n1 < CF-Cache-Status: HIT\n1 < Age: 1697\n1 < Report-To: {\"endpoints\":[{\"url\":\"https:\\\/\\\/a.nel.cloudflare.com\\\/report\\\/v3?s=IcQtVvR%2BigQHfp0qP%2Fq59BFNmK%2BkY5gVK%2F3wNJWICEv7FeyeSmeqajs9QtwMpqIWsO7rpO6ruW%2BUckssz27R01exsgae1O2dvozlBj2twmQETq%2BwcKexqIiHUg%3D%3D\"}],\"group\":\"cf-nel\",\"max_age\":604800}\n1 < NEL: {\"success_fraction\":0,\"report_to\":\"cf-nel\",\"max_age\":604800}\n1 < Vary: Accept-Encoding\n1 < Server: cloudflare\n1 < CF-RAY: 7b71344f99c283f3-BLR\n{\"page\":2,\"per_page\":6,\"total\":12,\"total_pages\":2,\"data\":[{\"id\":7,\"email\":\"michael.lawson@reqres.in\",\"first_name\":\"Michael\",\"last_name\":\"Lawson\",\"avatar\":\"https:\/\/reqres.in\/img\/faces\/7-image.jpg\"},{\"id\":8,\"email\":\"lindsay.ferguson@reqres.in\",\"first_name\":\"Lindsay\",\"last_name\":\"Ferguson\",\"avatar\":\"https:\/\/reqres.in\/img\/faces\/8-image.jpg\"},{\"id\":9,\"email\":\"tobias.funke@reqres.in\",\"first_name\":\"Tobias\",\"last_name\":\"Funke\",\"avatar\":\"https:\/\/reqres.in\/img\/faces\/9-image.jpg\"},{\"id\":10,\"email\":\"byron.fields@reqres.in\",\"first_name\":\"Byron\",\"last_name\":\"Fields\",\"avatar\":\"https:\/\/reqres.in\/img\/faces\/10-image.jpg\"},{\"id\":11,\"email\":\"george.edwards@reqres.in\",\"first_name\":\"George\",\"last_name\":\"Edwards\",\"avatar\":\"https:\/\/reqres.in\/img\/faces\/11-image.jpg\"},{\"id\":12,\"email\":\"rachel.howell@reqres.in\",\"first_name\":\"Rachel\",\"last_name\":\"Howell\",\"avatar\":\"https:\/\/reqres.in\/img\/faces\/12-image.jpg\"}],\"support\":{\"url\":\"https:\/\/reqres.in\/#support-heading\",\"text\":\"To keep ReqRes free, contributions towards server costs are appreciated!\"}}\n\n"},{"result":{"nanos":13250,"millis":0.01325,"status":"passed"},"step":{"line":14,"prefix":"Then","index":2,"text":"status 200"}},{"result":{"nanos":3384750,"millis":3.38475,"status":"passed"},"step":{"line":15,"prefix":"And","index":3,"text":"print response"},"stepLog":"10:40:44.357 [print] {\n  \"page\": 2,\n  \"per_page\": 6,\n  \"total\": 12,\n  \"total_pages\": 2,\n  \"data\": [\n    {\n      \"id\": 7,\n      \"email\": \"michael.lawson@reqres.in\",\n      \"first_name\": \"Michael\",\n      \"last_name\": \"Lawson\",\n      \"avatar\": \"https:\/\/reqres.in\/img\/faces\/7-image.jpg\"\n    },\n    {\n      \"id\": 8,\n      \"email\": \"lindsay.ferguson@reqres.in\",\n      \"first_name\": \"Lindsay\",\n      \"last_name\": \"Ferguson\",\n      \"avatar\": \"https:\/\/reqres.in\/img\/faces\/8-image.jpg\"\n    },\n    {\n      \"id\": 9,\n      \"email\": \"tobias.funke@reqres.in\",\n      \"first_name\": \"Tobias\",\n      \"last_name\": \"Funke\",\n      \"avatar\": \"https:\/\/reqres.in\/img\/faces\/9-image.jpg\"\n    },\n    {\n      \"id\": 10,\n      \"email\": \"byron.fields@reqres.in\",\n      \"first_name\": \"Byron\",\n      \"last_name\": \"Fields\",\n      \"avatar\": \"https:\/\/reqres.in\/img\/faces\/10-image.jpg\"\n    },\n    {\n      \"id\": 11,\n      \"email\": \"george.edwards@reqres.in\",\n      \"first_name\": \"George\",\n      \"last_name\": \"Edwards\",\n      \"avatar\": \"https:\/\/reqres.in\/img\/faces\/11-image.jpg\"\n    },\n    {\n      \"id\": 12,\n      \"email\": \"rachel.howell@reqres.in\",\n      \"first_name\": \"Rachel\",\n      \"last_name\": \"Howell\",\n      \"avatar\": \"https:\/\/reqres.in\/img\/faces\/12-image.jpg\"\n    }\n  ],\n  \"support\": {\n    \"url\": \"https:\/\/reqres.in\/#support-heading\",\n    \"text\": \"To keep ReqRes free, contributions towards server costs are appreciated!\"\n  }\n}\n \n"},{"result":{"nanos":790125,"millis":0.790125,"status":"passed"},"step":{"line":16,"prefix":"And","index":4,"text":"print responseStatus"},"stepLog":"10:40:44.358 [print] 200 \n"},{"result":{"nanos":630208,"millis":0.630208,"status":"passed"},"step":{"line":17,"prefix":"And","index":5,"text":"print responseHeaders"},"stepLog":"10:40:44.359 [print] {\n  \"Date\": [\n    \"Thu, 13 Apr 2023 05:10:44 GMT\"\n  ],\n  \"Content-Type\": [\n    \"application\/json; charset=utf-8\"\n  ],\n  \"Transfer-Encoding\": [\n    \"chunked\"\n  ],\n  \"Connection\": [\n    \"keep-alive\"\n  ],\n  \"X-Powered-By\": [\n    \"Express\"\n  ],\n  \"Access-Control-Allow-Origin\": [\n    \"*\"\n  ],\n  \"Etag\": [\n    \"W\/\\\"406-ut0vzoCuidvyMf8arZpMpJ6ZRDw\\\"\"\n  ],\n  \"Via\": [\n    \"1.1 vegur\"\n  ],\n  \"Cache-Control\": [\n    \"max-age=14400\"\n  ],\n  \"CF-Cache-Status\": [\n    \"HIT\"\n  ],\n  \"Age\": [\n    \"1697\"\n  ],\n  \"Report-To\": [\n    \"{\\\"endpoints\\\":[{\\\"url\\\":\\\"https:\\\\\/\\\\\/a.nel.cloudflare.com\\\\\/report\\\\\/v3?s=IcQtVvR%2BigQHfp0qP%2Fq59BFNmK%2BkY5gVK%2F3wNJWICEv7FeyeSmeqajs9QtwMpqIWsO7rpO6ruW%2BUckssz27R01exsgae1O2dvozlBj2twmQETq%2BwcKexqIiHUg%3D%3D\\\"}],\\\"group\\\":\\\"cf-nel\\\",\\\"max_age\\\":604800}\"\n  ],\n  \"NEL\": [\n    \"{\\\"success_fraction\\\":0,\\\"report_to\\\":\\\"cf-nel\\\",\\\"max_age\\\":604800}\"\n  ],\n  \"Vary\": [\n    \"Accept-Encoding\"\n  ],\n  \"Server\": [\n    \"cloudflare\"\n  ],\n  \"CF-RAY\": [\n    \"7b71344f99c283f3-BLR\"\n  ],\n  \"Set-Cookie\": [\n  ]\n}\n \n"},{"result":{"nanos":421833,"millis":0.421833,"status":"passed"},"step":{"line":18,"prefix":"And","index":6,"text":"print responseTime"},"stepLog":"10:40:44.360 [print] 42 \n"},{"result":{"nanos":435417,"millis":0.435417,"status":"passed"},"step":{"line":19,"prefix":"And","index":7,"text":"print responseCookies"},"stepLog":"10:40:44.360 [print] {\n}\n \n"}],"line":11,"description":"","durationMillis":49.698,"failed":false,"tags":["debug"],"executorName":"pool-1-thread-5","name":"Get demo1","startTime":1681362644309,"refId":"[2:11]","endTime":1681362644360,"exampleIndex":-1},{"sectionIndex":2,"stepResults":[{"result":{"nanos":94792,"millis":0.094792,"status":"passed"},"step":{"background":true,"line":4,"prefix":"*","index":0,"text":"url 'https:\/\/reqres.in\/api'"}},{"result":{"nanos":62125,"millis":0.062125,"status":"passed"},"step":{"background":true,"line":5,"prefix":"*","index":1,"text":"header Accept = 'application\/json'"}},{"result":{"nanos":263500,"millis":0.2635,"status":"passed"},"step":{"line":23,"prefix":"Given","index":0,"text":"path '\/users\/2'"}},{"result":{"nanos":45391000,"millis":45.391,"status":"passed"},"step":{"line":24,"prefix":"When","index":1,"text":"method GET"},"stepLog":"10:40:44.364 request:\n1 > GET https:\/\/reqres.in\/api\/users\/2\n1 > Accept: application\/json\n1 > Host: reqres.in\n1 > Connection: Keep-Alive\n1 > User-Agent: Apache-HttpClient\/4.5.13 (Java\/20)\n1 > Accept-Encoding: gzip,deflate\n\n\n10:40:44.409 response time in milliseconds: 44\n1 < 200\n1 < Date: Thu, 13 Apr 2023 05:10:44 GMT\n1 < Content-Type: application\/json; charset=utf-8\n1 < Transfer-Encoding: chunked\n1 < Connection: keep-alive\n1 < X-Powered-By: Express\n1 < Access-Control-Allow-Origin: *\n1 < Etag: W\/\"118-pbdwwFo9SKNhD3Lx5iHJyngpq00\"\n1 < Via: 1.1 vegur\n1 < Cache-Control: max-age=14400\n1 < CF-Cache-Status: HIT\n1 < Age: 592\n1 < Report-To: {\"endpoints\":[{\"url\":\"https:\\\/\\\/a.nel.cloudflare.com\\\/report\\\/v3?s=wN5ZTIv5CgnMxEqOPWSacCRGdpBz5n7hxZzuJRYHAB8amR5AU4qtA0gO4xHp2yBL%2BQ7LJ5GuezasBdq1oZQV9NNY50XL9641I2LKrG%2FtgDqqnQ9Q06dd1KpNJg%3D%3D\"}],\"group\":\"cf-nel\",\"max_age\":604800}\n1 < NEL: {\"success_fraction\":0,\"report_to\":\"cf-nel\",\"max_age\":604800}\n1 < Vary: Accept-Encoding\n1 < Server: cloudflare\n1 < CF-RAY: 7b71344fe82a3c13-BLR\n{\"data\":{\"id\":2,\"email\":\"janet.weaver@reqres.in\",\"first_name\":\"Janet\",\"last_name\":\"Weaver\",\"avatar\":\"https:\/\/reqres.in\/img\/faces\/2-image.jpg\"},\"support\":{\"url\":\"https:\/\/reqres.in\/#support-heading\",\"text\":\"To keep ReqRes free, contributions towards server costs are appreciated!\"}}\n\n"},{"result":{"nanos":12875,"millis":0.012875,"status":"passed"},"step":{"line":25,"prefix":"Then","index":2,"text":"status 200"}}],"line":22,"description":"","durationMillis":45.824292,"failed":false,"tags":["debug"],"executorName":"pool-1-thread-5","name":"Get demo 2","startTime":1681362644363,"refId":"[3:22]","endTime":1681362644409,"exampleIndex":-1},{"sectionIndex":3,"stepResults":[{"result":{"nanos":92333,"millis":0.092333,"status":"passed"},"step":{"background":true,"line":4,"prefix":"*","index":0,"text":"url 'https:\/\/reqres.in\/api'"}},{"result":{"nanos":58667,"millis":0.058667,"status":"passed"},"step":{"background":true,"line":5,"prefix":"*","index":1,"text":"header Accept = 'application\/json'"}},{"result":{"nanos":211750,"millis":0.21175,"status":"passed"},"step":{"line":29,"prefix":"Given","index":0,"text":"path '\/users'"}},{"result":{"nanos":375667,"millis":0.375667,"status":"passed"},"step":{"line":30,"prefix":"And","index":1,"text":"param page = 2"}},{"result":{"nanos":40787208,"millis":40.787208,"status":"passed"},"step":{"line":31,"prefix":"When","index":2,"text":"method GET"},"stepLog":"10:40:44.414 request:\n1 > GET https:\/\/reqres.in\/api\/users?page=2\n1 > Accept: application\/json\n1 > Host: reqres.in\n1 > Connection: Keep-Alive\n1 > User-Agent: Apache-HttpClient\/4.5.13 (Java\/20)\n1 > Accept-Encoding: gzip,deflate\n\n\n10:40:44.454 response time in milliseconds: 39\n1 < 200\n1 < Date: Thu, 13 Apr 2023 05:10:44 GMT\n1 < Content-Type: application\/json; charset=utf-8\n1 < Transfer-Encoding: chunked\n1 < Connection: keep-alive\n1 < X-Powered-By: Express\n1 < Access-Control-Allow-Origin: *\n1 < Etag: W\/\"406-ut0vzoCuidvyMf8arZpMpJ6ZRDw\"\n1 < Via: 1.1 vegur\n1 < Cache-Control: max-age=14400\n1 < CF-Cache-Status: HIT\n1 < Age: 1697\n1 < Report-To: {\"endpoints\":[{\"url\":\"https:\\\/\\\/a.nel.cloudflare.com\\\/report\\\/v3?s=6n7vY1gekSjHmZPLAvae4hDSyRGcO2kEygJbVbztmjIVhEvgG9SWfe4xUVBD%2F7870qX8k0xXBocbhZp62j0%2B1lpbE4Nb5lRvBya8VbzpM5vKudJOFzfIK0r6BQ%3D%3D\"}],\"group\":\"cf-nel\",\"max_age\":604800}\n1 < NEL: {\"success_fraction\":0,\"report_to\":\"cf-nel\",\"max_age\":604800}\n1 < Vary: Accept-Encoding\n1 < Server: cloudflare\n1 < CF-RAY: 7b7134503f7e3c01-BLR\n{\"page\":2,\"per_page\":6,\"total\":12,\"total_pages\":2,\"data\":[{\"id\":7,\"email\":\"michael.lawson@reqres.in\",\"first_name\":\"Michael\",\"last_name\":\"Lawson\",\"avatar\":\"https:\/\/reqres.in\/img\/faces\/7-image.jpg\"},{\"id\":8,\"email\":\"lindsay.ferguson@reqres.in\",\"first_name\":\"Lindsay\",\"last_name\":\"Ferguson\",\"avatar\":\"https:\/\/reqres.in\/img\/faces\/8-image.jpg\"},{\"id\":9,\"email\":\"tobias.funke@reqres.in\",\"first_name\":\"Tobias\",\"last_name\":\"Funke\",\"avatar\":\"https:\/\/reqres.in\/img\/faces\/9-image.jpg\"},{\"id\":10,\"email\":\"byron.fields@reqres.in\",\"first_name\":\"Byron\",\"last_name\":\"Fields\",\"avatar\":\"https:\/\/reqres.in\/img\/faces\/10-image.jpg\"},{\"id\":11,\"email\":\"george.edwards@reqres.in\",\"first_name\":\"George\",\"last_name\":\"Edwards\",\"avatar\":\"https:\/\/reqres.in\/img\/faces\/11-image.jpg\"},{\"id\":12,\"email\":\"rachel.howell@reqres.in\",\"first_name\":\"Rachel\",\"last_name\":\"Howell\",\"avatar\":\"https:\/\/reqres.in\/img\/faces\/12-image.jpg\"}],\"support\":{\"url\":\"https:\/\/reqres.in\/#support-heading\",\"text\":\"To keep ReqRes free, contributions towards server costs are appreciated!\"}}\n\n"},{"result":{"nanos":11208,"millis":0.011208,"status":"passed"},"step":{"line":32,"prefix":"Then","index":3,"text":"status 200"}}],"line":28,"description":"","durationMillis":41.536833,"failed":false,"tags":["debug"],"executorName":"pool-1-thread-5","name":"Get demo 3","startTime":1681362644412,"refId":"[4:28]","endTime":1681362644454,"exampleIndex":-1},{"sectionIndex":4,"stepResults":[{"result":{"nanos":221709,"millis":0.221709,"status":"passed"},"step":{"background":true,"line":4,"prefix":"*","index":0,"text":"url 'https:\/\/reqres.in\/api'"}},{"result":{"nanos":144250,"millis":0.14425,"status":"passed"},"step":{"background":true,"line":5,"prefix":"*","index":1,"text":"header Accept = 'application\/json'"}},{"result":{"nanos":108125,"millis":0.108125,"status":"passed"},"step":{"line":36,"prefix":"Given","index":0,"text":"path '\/users'"}},{"result":{"nanos":143750,"millis":0.14375,"status":"passed"},"step":{"line":37,"prefix":"And","index":1,"text":"param page = 2"}},{"result":{"nanos":54462542,"millis":54.462542,"status":"passed"},"step":{"line":38,"prefix":"When","index":2,"text":"method GET"},"stepLog":"10:40:44.422 request:\n1 > GET https:\/\/reqres.in\/api\/users?page=2\n1 > Accept: application\/json\n1 > Host: reqres.in\n1 > Connection: Keep-Alive\n1 > User-Agent: Apache-HttpClient\/4.5.13 (Java\/20)\n1 > Accept-Encoding: gzip,deflate\n\n\n10:40:44.475 response time in milliseconds: 53\n1 < 200\n1 < Date: Thu, 13 Apr 2023 05:10:44 GMT\n1 < Content-Type: application\/json; charset=utf-8\n1 < Transfer-Encoding: chunked\n1 < Connection: keep-alive\n1 < X-Powered-By: Express\n1 < Access-Control-Allow-Origin: *\n1 < Etag: W\/\"406-ut0vzoCuidvyMf8arZpMpJ6ZRDw\"\n1 < Via: 1.1 vegur\n1 < Cache-Control: max-age=14400\n1 < CF-Cache-Status: HIT\n1 < Age: 1697\n1 < Report-To: {\"endpoints\":[{\"url\":\"https:\\\/\\\/a.nel.cloudflare.com\\\/report\\\/v3?s=BLhoxhTPp33Drdw9C4on%2Bfb4fmS%2FytmkzNEByic1PHAD9tUjYfpJmsraO6UMLg8LHDFUNmEe36HzCIxD0DQfFcpZUAITpS8P5x%2BJ%2FC75LYO9gkttUZmsIYkH7Q%3D%3D\"}],\"group\":\"cf-nel\",\"max_age\":604800}\n1 < NEL: {\"success_fraction\":0,\"report_to\":\"cf-nel\",\"max_age\":604800}\n1 < Vary: Accept-Encoding\n1 < Server: cloudflare\n1 < CF-RAY: 7b71345048793c12-BLR\n{\"page\":2,\"per_page\":6,\"total\":12,\"total_pages\":2,\"data\":[{\"id\":7,\"email\":\"michael.lawson@reqres.in\",\"first_name\":\"Michael\",\"last_name\":\"Lawson\",\"avatar\":\"https:\/\/reqres.in\/img\/faces\/7-image.jpg\"},{\"id\":8,\"email\":\"lindsay.ferguson@reqres.in\",\"first_name\":\"Lindsay\",\"last_name\":\"Ferguson\",\"avatar\":\"https:\/\/reqres.in\/img\/faces\/8-image.jpg\"},{\"id\":9,\"email\":\"tobias.funke@reqres.in\",\"first_name\":\"Tobias\",\"last_name\":\"Funke\",\"avatar\":\"https:\/\/reqres.in\/img\/faces\/9-image.jpg\"},{\"id\":10,\"email\":\"byron.fields@reqres.in\",\"first_name\":\"Byron\",\"last_name\":\"Fields\",\"avatar\":\"https:\/\/reqres.in\/img\/faces\/10-image.jpg\"},{\"id\":11,\"email\":\"george.edwards@reqres.in\",\"first_name\":\"George\",\"last_name\":\"Edwards\",\"avatar\":\"https:\/\/reqres.in\/img\/faces\/11-image.jpg\"},{\"id\":12,\"email\":\"rachel.howell@reqres.in\",\"first_name\":\"Rachel\",\"last_name\":\"Howell\",\"avatar\":\"https:\/\/reqres.in\/img\/faces\/12-image.jpg\"}],\"support\":{\"url\":\"https:\/\/reqres.in\/#support-heading\",\"text\":\"To keep ReqRes free, contributions towards server costs are appreciated!\"}}\n\n"},{"result":{"nanos":14375,"millis":0.014375,"status":"passed"},"step":{"line":39,"prefix":"Then","index":3,"text":"status 200"}},{"result":{"nanos":6069875,"millis":6.069875,"status":"passed"},"step":{"line":40,"prefix":"And","index":4,"text":"match response.data[0].first_name != null"}},{"result":{"nanos":520083,"millis":0.520083,"status":"passed"},"step":{"line":41,"prefix":"And","index":5,"text":"match $.data[1].id == '#number'"}},{"result":{"nanos":269709,"millis":0.269709,"status":"passed"},"step":{"line":42,"prefix":"And","index":6,"text":"match $.data[3].last_name == '#string'"}}],"line":35,"description":"","durationMillis":61.954418,"failed":false,"tags":["debug"],"executorName":"pool-1-thread-4","name":"Get demo 4","startTime":1681362644419,"refId":"[5:35]","endTime":1681362644483,"exampleIndex":-1},{"sectionIndex":5,"stepResults":[{"result":{"nanos":144583,"millis":0.144583,"status":"passed"},"step":{"background":true,"line":4,"prefix":"*","index":0,"text":"url 'https:\/\/reqres.in\/api'"}},{"result":{"nanos":62333,"millis":0.062333,"status":"passed"},"step":{"background":true,"line":5,"prefix":"*","index":1,"text":"header Accept = 'application\/json'"}},{"result":{"nanos":4956625,"millis":4.956625,"status":"passed"},"step":{"line":45,"prefix":"Given","index":0,"text":"path '\/users', id"}},{"result":{"nanos":47041333,"millis":47.041333,"status":"passed"},"step":{"line":46,"prefix":"When","index":1,"text":"method GET"},"stepLog":"10:40:44.463 request:\n1 > GET https:\/\/reqres.in\/api\/users\/3\n1 > Accept: application\/json\n1 > Host: reqres.in\n1 > Connection: Keep-Alive\n1 > User-Agent: Apache-HttpClient\/4.5.13 (Java\/20)\n1 > Accept-Encoding: gzip,deflate\n\n\n10:40:44.509 response time in milliseconds: 46\n1 < 200\n1 < Date: Thu, 13 Apr 2023 05:10:44 GMT\n1 < Content-Type: application\/json; charset=utf-8\n1 < Transfer-Encoding: chunked\n1 < Connection: keep-alive\n1 < X-Powered-By: Express\n1 < Access-Control-Allow-Origin: *\n1 < Etag: W\/\"112-EeInfgHWtnxhYRnwgZUB667e024\"\n1 < Via: 1.1 vegur\n1 < Cache-Control: max-age=14400\n1 < CF-Cache-Status: HIT\n1 < Age: 207\n1 < Report-To: {\"endpoints\":[{\"url\":\"https:\\\/\\\/a.nel.cloudflare.com\\\/report\\\/v3?s=PXaf2sOr74TMEJl1AAF6YNGEJ%2FsOyPKQDV0gcoqbRq%2FzCR6nmhzOqsXqPxeDu%2BcwcvygTKTxioZ%2BJUjveWasbhIJIEMqCfa%2Fgz1BnrSNjmwzRBdxynxz4wVAPQ%3D%3D\"}],\"group\":\"cf-nel\",\"max_age\":604800}\n1 < NEL: {\"success_fraction\":0,\"report_to\":\"cf-nel\",\"max_age\":604800}\n1 < Vary: Accept-Encoding\n1 < Server: cloudflare\n1 < CF-RAY: 7b7134508bc33c07-BLR\n{\"data\":{\"id\":3,\"email\":\"emma.wong@reqres.in\",\"first_name\":\"Emma\",\"last_name\":\"Wong\",\"avatar\":\"https:\/\/reqres.in\/img\/faces\/3-image.jpg\"},\"support\":{\"url\":\"https:\/\/reqres.in\/#support-heading\",\"text\":\"To keep ReqRes free, contributions towards server costs are appreciated!\"}}\n\n"},{"result":{"nanos":11417,"millis":0.011417,"status":"passed"},"step":{"line":47,"prefix":"Then","index":2,"text":"status 200"}}],"line":50,"description":"","durationMillis":52.216291,"failed":false,"tags":["debug"],"executorName":"pool-1-thread-5","name":"GET demo 5","startTime":1681362644456,"refId":"[6.1:50]","endTime":1681362644509,"exampleData":{"id":"3"},"exampleIndex":0},{"sectionIndex":5,"stepResults":[{"result":{"nanos":58166,"millis":0.058166,"status":"passed"},"step":{"background":true,"line":4,"prefix":"*","index":0,"text":"url 'https:\/\/reqres.in\/api'"}},{"result":{"nanos":53667,"millis":0.053667,"status":"passed"},"step":{"background":true,"line":5,"prefix":"*","index":1,"text":"header Accept = 'application\/json'"}},{"result":{"nanos":507292,"millis":0.507292,"status":"passed"},"step":{"line":45,"prefix":"Given","index":0,"text":"path '\/users', id"}},{"result":{"nanos":59432792,"millis":59.432792,"status":"passed"},"step":{"line":46,"prefix":"When","index":1,"text":"method GET"},"stepLog":"10:40:44.487 request:\n1 > GET https:\/\/reqres.in\/api\/users\/4\n1 > Accept: application\/json\n1 > Host: reqres.in\n1 > Connection: Keep-Alive\n1 > User-Agent: Apache-HttpClient\/4.5.13 (Java\/20)\n1 > Accept-Encoding: gzip,deflate\n\n\n10:40:44.545 response time in milliseconds: 58\n1 < 200\n1 < Date: Thu, 13 Apr 2023 05:10:44 GMT\n1 < Content-Type: application\/json; charset=utf-8\n1 < Transfer-Encoding: chunked\n1 < Connection: keep-alive\n1 < X-Powered-By: Express\n1 < Access-Control-Allow-Origin: *\n1 < Etag: W\/\"110-Xdg3LtI+q2zMxihHlfeIZQo\/bvY\"\n1 < Via: 1.1 vegur\n1 < Cache-Control: max-age=14400\n1 < CF-Cache-Status: HIT\n1 < Age: 206\n1 < Report-To: {\"endpoints\":[{\"url\":\"https:\\\/\\\/a.nel.cloudflare.com\\\/report\\\/v3?s=mgOb0FOb6fqcPCby9Y59j3qDp%2F4SAORbW%2Fpz%2BbvwxeEf%2FkRCxMLJ9WghKEK8v%2BWywfXKCPeAj2Tuq4kiwc5Foq71fo3f2REPRrpu9ztmd7byPfdt5rXMCWDPkA%3D%3D\"}],\"group\":\"cf-nel\",\"max_age\":604800}\n1 < NEL: {\"success_fraction\":0,\"report_to\":\"cf-nel\",\"max_age\":604800}\n1 < Vary: Accept-Encoding\n1 < Server: cloudflare\n1 < CF-RAY: 7b713450ca8b3c06-BLR\n{\"data\":{\"id\":4,\"email\":\"eve.holt@reqres.in\",\"first_name\":\"Eve\",\"last_name\":\"Holt\",\"avatar\":\"https:\/\/reqres.in\/img\/faces\/4-image.jpg\"},\"support\":{\"url\":\"https:\/\/reqres.in\/#support-heading\",\"text\":\"To keep ReqRes free, contributions towards server costs are appreciated!\"}}\n\n"},{"result":{"nanos":20125,"millis":0.020125,"status":"passed"},"step":{"line":47,"prefix":"Then","index":2,"text":"status 200"}}],"line":51,"description":"","durationMillis":60.072042,"failed":false,"tags":["debug"],"executorName":"pool-1-thread-4","name":"GET demo 5","startTime":1681362644485,"refId":"[6.2:51]","endTime":1681362644546,"exampleData":{"id":"4"},"exampleIndex":1},{"sectionIndex":5,"stepResults":[{"result":{"nanos":91333,"millis":0.091333,"status":"passed"},"step":{"background":true,"line":4,"prefix":"*","index":0,"text":"url 'https:\/\/reqres.in\/api'"}},{"result":{"nanos":54500,"millis":0.0545,"status":"passed"},"step":{"background":true,"line":5,"prefix":"*","index":1,"text":"header Accept = 'application\/json'"}},{"result":{"nanos":88250,"millis":0.08825,"status":"passed"},"step":{"line":45,"prefix":"Given","index":0,"text":"path '\/users', id"}},{"result":{"nanos":53207750,"millis":53.20775,"status":"passed"},"step":{"line":46,"prefix":"When","index":1,"text":"method GET"},"stepLog":"10:40:44.513 request:\n1 > GET https:\/\/reqres.in\/api\/users\/5\n1 > Accept: application\/json\n1 > Host: reqres.in\n1 > Connection: Keep-Alive\n1 > User-Agent: Apache-HttpClient\/4.5.13 (Java\/20)\n1 > Accept-Encoding: gzip,deflate\n\n\n10:40:44.565 response time in milliseconds: 52\n1 < 200\n1 < Date: Thu, 13 Apr 2023 05:10:44 GMT\n1 < Content-Type: application\/json; charset=utf-8\n1 < Transfer-Encoding: chunked\n1 < Connection: keep-alive\n1 < X-Powered-By: Express\n1 < Access-Control-Allow-Origin: *\n1 < Etag: W\/\"11c-fbAvBCQSZgUU6dvLRqxYG0dwUTM\"\n1 < Via: 1.1 vegur\n1 < Cache-Control: max-age=14400\n1 < CF-Cache-Status: HIT\n1 < Age: 206\n1 < Report-To: {\"endpoints\":[{\"url\":\"https:\\\/\\\/a.nel.cloudflare.com\\\/report\\\/v3?s=FTfWfwYE6HdYiJbUsAQkxVzDv9NPdK5QXswO25WJ3QjnWoVQqE8VMEdiftHfAAbJyxq1%2BBeKcSLf7wiaUdJposEYTHFOgrpZTchSN%2F1b6ugSv9o7u%2FDEiXvNpg%3D%3D\"}],\"group\":\"cf-nel\",\"max_age\":604800}\n1 < NEL: {\"success_fraction\":0,\"report_to\":\"cf-nel\",\"max_age\":604800}\n1 < Vary: Accept-Encoding\n1 < Server: cloudflare\n1 < CF-RAY: 7b713450db0d3c0d-BLR\n{\"data\":{\"id\":5,\"email\":\"charles.morris@reqres.in\",\"first_name\":\"Charles\",\"last_name\":\"Morris\",\"avatar\":\"https:\/\/reqres.in\/img\/faces\/5-image.jpg\"},\"support\":{\"url\":\"https:\/\/reqres.in\/#support-heading\",\"text\":\"To keep ReqRes free, contributions towards server costs are appreciated!\"}}\n\n"},{"result":{"nanos":137917,"millis":0.137917,"status":"passed"},"step":{"line":47,"prefix":"Then","index":2,"text":"status 200"}}],"line":52,"description":"","durationMillis":53.57975,"failed":false,"tags":["debug"],"executorName":"pool-1-thread-5","name":"GET demo 5","startTime":1681362644511,"refId":"[6.3:52]","endTime":1681362644566,"exampleData":{"id":"5"},"exampleIndex":2}],"callDepth":0,"name":"Test demo API","description":"","resultDate":"2023-04-13 10:40:45 am","durationMillis":670.201086,"passedCount":8}