{"failedCount":0,"prefixedPath":"kdemo\/src\/test\/java\/demo\/features\/BearerToken.feature","packageQualifiedName":"kdemo.src.test.java.demo.features.BearerToken","loopIndex":-1,"relativePath":"kdemo\/src\/test\/java\/demo\/features\/BearerToken.feature","scenarioResults":[{"sectionIndex":0,"stepResults":[{"result":{"nanos":32774417,"millis":32.774417,"status":"passed"},"step":{"line":4,"prefix":"*","index":0,"text":"def tokenID = '94120e9960c309eae23dc20b5cfce4c7c790e09f2499b11d8446d3d40abff504'"}},{"result":{"nanos":403208,"millis":0.403208,"status":"passed"},"step":{"line":5,"prefix":"*","index":1,"text":"def baseUrl1 = 'https:\/\/gorest.co.in'"}},{"result":{"nanos":12292667,"millis":12.292667,"status":"passed"},"step":{"line":6,"prefix":"Given","index":2,"text":"url baseUrl1+'\/public\/v1\/users'"}},{"result":{"nanos":2438750,"millis":2.43875,"status":"passed"},"step":{"line":7,"prefix":"And","index":3,"text":"header Authorization = 'Bearer' + tokenID"}},{"result":{"nanos":395691542,"millis":395.691542,"status":"passed"},"step":{"line":8,"prefix":"When","index":4,"text":"method Get"},"stepLog":"15:45:52.324 request:\n1 > GET https:\/\/gorest.co.in\/public\/v1\/users\n1 > Authorization: Bearer94120e9960c309eae23dc20b5cfce4c7c790e09f2499b11d8446d3d40abff504\n1 > Host: gorest.co.in\n1 > Connection: Keep-Alive\n1 > User-Agent: Apache-HttpClient\/4.5.14 (Java\/17.0.6)\n1 > Accept-Encoding: gzip,deflate\n\n\n15:45:52.585 response time in milliseconds: 257\n1 < 200\n1 < Date: Fri, 07 Apr 2023 10:15:52 GMT\n1 < Content-Type: application\/json; charset=utf-8\n1 < Transfer-Encoding: chunked\n1 < Connection: keep-alive\n1 < Cache-Control: max-age=0, private, must-revalidate\n1 < etag: W\/\"d029c4aa282dbe4a0b195e33f1fc7977\"\n1 < referrer-policy: strict-origin-when-cross-origin\n1 < vary: Origin\n1 < x-content-type-options: nosniff\n1 < x-download-options: noopen\n1 < x-frame-options: SAMEORIGIN\n1 < x-permitted-cross-domain-policies: none\n1 < x-request-id: f61840a1-e445-4171-b4b3-b72ac5d0273a\n1 < x-runtime: 0.043246\n1 < x-xss-protection: 0\n1 < CF-Cache-Status: DYNAMIC\n1 < Report-To: {\"endpoints\":[{\"url\":\"https:\\\/\\\/a.nel.cloudflare.com\\\/report\\\/v3?s=UNUnQwL%2FXieW3sLmCdMPuJCWCaH8hqNwrjyHn3ven4AuVlH52dv8xo29B0uYmyFOIGWyCQ4y5xJ9yQUWCupUWMKJG6OaQ7YEwkuo%2FghzDRU%2B%2BKH6NMFBTVMmwlraIZk%3D\"}],\"group\":\"cf-nel\",\"max_age\":604800}\n1 < NEL: {\"success_fraction\":0,\"report_to\":\"cf-nel\",\"max_age\":604800}\n1 < Server: cloudflare\n1 < CF-RAY: 7b418309d8b0f353-BOM\n1 < alt-svc: h3=\":443\"; ma=86400, h3-29=\":443\"; ma=86400\n{\"meta\":{\"pagination\":{\"total\":2498,\"pages\":250,\"page\":1,\"limit\":10,\"links\":{\"previous\":null,\"current\":\"https:\/\/gorest.co.in\/public\/v1\/users?page=1\",\"next\":\"https:\/\/gorest.co.in\/public\/v1\/users?page=2\"}}},\"data\":[{\"id\":807071,\"name\":\"Geeta Bhattacharya\",\"email\":\"bhattacharya_geeta@veum.name\",\"gender\":\"female\",\"status\":\"inactive\"},{\"id\":807070,\"name\":\"Fr. Anilabh Panicker\",\"email\":\"panicker_anilabh_fr@runolfsdottir.org\",\"gender\":\"female\",\"status\":\"inactive\"},{\"id\":807069,\"name\":\"Ankal Khanna\",\"email\":\"ankal_khanna@kuvalis.io\",\"gender\":\"male\",\"status\":\"active\"},{\"id\":807068,\"name\":\"Fr. Inder Bhattathiri\",\"email\":\"bhattathiri_fr_inder@quigley.com\",\"gender\":\"male\",\"status\":\"active\"},{\"id\":806598,\"name\":\"Deeptimayee Marar\",\"email\":\"marar_deeptimayee@jenkins.org\",\"gender\":\"female\",\"status\":\"active\"},{\"id\":806596,\"name\":\"Anjaneya Chaturvedi\",\"email\":\"anjaneya_chaturvedi@stracke.co\",\"gender\":\"female\",\"status\":\"active\"},{\"id\":806594,\"name\":\"Kamala Bandopadhyay\",\"email\":\"kamala_bandopadhyay@lehner-murphy.com\",\"gender\":\"male\",\"status\":\"inactive\"},{\"id\":806096,\"name\":\"Devika Ganaka\",\"email\":\"ganaka_devika@paucek.biz\",\"gender\":\"male\",\"status\":\"active\"},{\"id\":804747,\"name\":\"Rev. Subhash Chopra\",\"email\":\"rev_chopra_subhash@anderson-hahn.com\",\"gender\":\"female\",\"status\":\"active\"},{\"id\":804746,\"name\":\"Rajinder Desai Ret.\",\"email\":\"ret_desai_rajinder@abernathy.io\",\"gender\":\"female\",\"status\":\"active\"}]}\n\n"},{"result":{"nanos":26125,"millis":0.026125,"status":"passed"},"step":{"line":9,"prefix":"Then","index":5,"text":"status 200"}}],"executorName":"main","line":3,"name":"Validation using Bearer token","description":"","durationMillis":443.626709,"startTime":1680862552153,"failed":false,"refId":"[1:3]","endTime":1680862552602,"exampleIndex":-1}],"callDepth":0,"name":"Bearer token validation","description":"","resultDate":"2023-04-07 03:45:52 pm","durationMillis":443.626709,"passedCount":1}