{"failedCount":0,"prefixedPath":"kdemo\/src\/test\/java\/demo\/features\/BearerToken.feature","packageQualifiedName":"kdemo.src.test.java.demo.features.BearerToken","loopIndex":-1,"relativePath":"kdemo\/src\/test\/java\/demo\/features\/BearerToken.feature","scenarioResults":[{"sectionIndex":0,"stepResults":[{"result":{"nanos":34036417,"millis":34.036417,"status":"passed"},"step":{"line":4,"prefix":"*","index":0,"text":"def tokenID = '94120e9960c309eae23dc20b5cfce4c7c790e09f2499b11d8446d3d40abff504'"}},{"result":{"nanos":389250,"millis":0.38925,"status":"passed"},"step":{"line":5,"prefix":"*","index":1,"text":"def baseUrl1 = 'https:\/\/gorest.co.in'"}},{"result":{"nanos":11420750,"millis":11.42075,"status":"passed"},"step":{"line":6,"prefix":"Given","index":2,"text":"url baseUrl1+'\/public\/v1\/users'"}},{"result":{"nanos":2044375,"millis":2.044375,"status":"passed"},"step":{"line":7,"prefix":"And","index":3,"text":"header Authorization = 'Bearer' + tokenID"}},{"result":{"nanos":509788542,"millis":509.788542,"status":"passed"},"step":{"line":8,"prefix":"When","index":4,"text":"method Get"},"stepLog":"10:35:50.288 request:\n1 > GET https:\/\/gorest.co.in\/public\/v1\/users\n1 > Authorization: Bearer94120e9960c309eae23dc20b5cfce4c7c790e09f2499b11d8446d3d40abff504\n1 > Host: gorest.co.in\n1 > Connection: Keep-Alive\n1 > User-Agent: Apache-HttpClient\/4.5.14 (Java\/17.0.6)\n1 > Accept-Encoding: gzip,deflate\n\n\n10:35:50.668 response time in milliseconds: 377\n1 < 200\n1 < Date: Thu, 13 Apr 2023 05:05:50 GMT\n1 < Content-Type: application\/json; charset=utf-8\n1 < Transfer-Encoding: chunked\n1 < Connection: keep-alive\n1 < Cache-Control: max-age=0, private, must-revalidate\n1 < etag: W\/\"a3b74fe4a2b965abc126eeccc7608ae1\"\n1 < referrer-policy: strict-origin-when-cross-origin\n1 < vary: Origin\n1 < x-content-type-options: nosniff\n1 < x-download-options: noopen\n1 < x-frame-options: SAMEORIGIN\n1 < x-permitted-cross-domain-policies: none\n1 < x-request-id: 25d71855-8095-4a68-8779-067b83d362dd\n1 < x-runtime: 0.039265\n1 < x-xss-protection: 0\n1 < CF-Cache-Status: DYNAMIC\n1 < Report-To: {\"endpoints\":[{\"url\":\"https:\\\/\\\/a.nel.cloudflare.com\\\/report\\\/v3?s=Z1HfeedaV%2Fpw4wnlEKHes5Q%2FhetcBG8Z%2FpknpPYw8l%2Bnufyl5e4DikweJV9snMwIgrTqFSDT4bH6A%2FDZ95JIRDMYUrkZwoIl%2BdyAX4%2B7eUz%2Fh7qLXqUd2CPnNY1dX0E%3D\"}],\"group\":\"cf-nel\",\"max_age\":604800}\n1 < NEL: {\"success_fraction\":0,\"report_to\":\"cf-nel\",\"max_age\":604800}\n1 < Server: cloudflare\n1 < CF-RAY: 7b712d238de23c0d-BLR\n1 < alt-svc: h3=\":443\"; ma=86400, h3-29=\":443\"; ma=86400\n{\"meta\":{\"pagination\":{\"total\":2500,\"pages\":250,\"page\":1,\"limit\":10,\"links\":{\"previous\":null,\"current\":\"https:\/\/gorest.co.in\/public\/v1\/users?page=1\",\"next\":\"https:\/\/gorest.co.in\/public\/v1\/users?page=2\"}}},\"data\":[{\"id\":955317,\"name\":\"Chandrabhaga Mukhopadhyay LLD\",\"email\":\"mukhopadhyay_lld_chandrabhaga@herzog.io\",\"gender\":\"female\",\"status\":\"active\"},{\"id\":955316,\"name\":\"Pres. Gandharva Pilla\",\"email\":\"gandharva_pilla_pres@jast.io\",\"gender\":\"female\",\"status\":\"inactive\"},{\"id\":955315,\"name\":\"Deeptendu Nehru\",\"email\":\"nehru_deeptendu@tremblay.net\",\"gender\":\"male\",\"status\":\"inactive\"},{\"id\":955314,\"name\":\"Baijayanti Bhattacharya\",\"email\":\"bhattacharya_baijayanti@white.info\",\"gender\":\"male\",\"status\":\"inactive\"},{\"id\":954694,\"name\":\"Deepali Devar\",\"email\":\"devar_deepali@hamill.name\",\"gender\":\"male\",\"status\":\"active\"},{\"id\":954693,\"name\":\"Chandra Gill II\",\"email\":\"chandra_gill_ii@harvey.co\",\"gender\":\"male\",\"status\":\"active\"},{\"id\":954691,\"name\":\"Anand Iyengar\",\"email\":\"iyengar_anand@witting.name\",\"gender\":\"male\",\"status\":\"inactive\"},{\"id\":954690,\"name\":\"Anala Johar Jr.\",\"email\":\"jr_johar_anala@beahan-mohr.net\",\"gender\":\"female\",\"status\":\"active\"},{\"id\":954689,\"name\":\"Vedang Marar\",\"email\":\"marar_vedang@deckow.biz\",\"gender\":\"female\",\"status\":\"active\"},{\"id\":954687,\"name\":\"Bhagwanti Jha\",\"email\":\"bhagwanti_jha@kerluke.co\",\"gender\":\"female\",\"status\":\"inactive\"}]}\n\n"},{"result":{"nanos":15333,"millis":0.015333,"status":"passed"},"step":{"line":9,"prefix":"Then","index":5,"text":"status 200"}}],"executorName":"main","line":3,"name":"Validation using Bearer token","description":"","durationMillis":557.694667,"startTime":1681362350121,"failed":false,"refId":"[1:3]","endTime":1681362350684,"exampleIndex":-1}],"callDepth":0,"name":"Bearer token validation","description":"","resultDate":"2023-04-13 10:35:50 am","durationMillis":557.694667,"passedCount":1}