{"failedCount":0,"prefixedPath":"src\/test\/java\/demo\/features\/GetCallDemo.feature","packageQualifiedName":"src.test.java.demo.features.GetCallDemo","loopIndex":-1,"relativePath":"src\/test\/java\/demo\/features\/GetCallDemo.feature","scenarioResults":[{"sectionIndex":0,"stepResults":[{"result":{"nanos":502709,"millis":0.502709,"status":"passed"},"step":{"background":true,"line":4,"prefix":"*","index":0,"text":"url 'https:\/\/reqres.in\/api'"},"stepLog":"15:07:09.553 karate.env system property was: null \n"},{"result":{"nanos":813666,"millis":0.813666,"status":"passed"},"step":{"background":true,"line":5,"prefix":"*","index":1,"text":"header Accept = 'application\/json'"}},{"result":{"nanos":579833,"millis":0.579833,"status":"passed"},"step":{"line":7,"prefix":"Given","index":0,"text":"url 'https:\/\/reqres.in\/api\/users?page=2'"}},{"result":{"nanos":441975209,"millis":441.975209,"status":"passed"},"step":{"line":8,"prefix":"When","index":1,"text":"method GET"},"stepLog":"15:07:09.682 request:\n1 > GET https:\/\/reqres.in\/api\/users?page=2\n1 > Accept: application\/json\n1 > Host: reqres.in\n1 > Connection: Keep-Alive\n1 > User-Agent: Apache-HttpClient\/4.5.13 (Java\/20)\n1 > Accept-Encoding: gzip,deflate\n\n\n15:07:09.992 response time in milliseconds: 309\n1 < 200\n1 < Date: Wed, 12 Apr 2023 09:37:10 GMT\n1 < Content-Type: application\/json; charset=utf-8\n1 < Transfer-Encoding: chunked\n1 < Connection: keep-alive\n1 < X-Powered-By: Express\n1 < Access-Control-Allow-Origin: *\n1 < Etag: W\/\"406-ut0vzoCuidvyMf8arZpMpJ6ZRDw\"\n1 < Via: 1.1 vegur\n1 < Cache-Control: max-age=14400\n1 < CF-Cache-Status: HIT\n1 < Age: 2388\n1 < Report-To: {\"endpoints\":[{\"url\":\"https:\\\/\\\/a.nel.cloudflare.com\\\/report\\\/v3?s=QUPtJSjQ7LvzZuOqUh2D4I%2BkX0tIoxtMu%2FN8bjqGEsuHBVTlpyJzX8lZ1hPHA0FZWF0fupEkVnnfgB2VRkbUIK%2BfEPkXKFEE7OE%2BzphCPTGAl4FW3G9GFZ%2BHbw%3D%3D\"}],\"group\":\"cf-nel\",\"max_age\":604800}\n1 < NEL: {\"success_fraction\":0,\"report_to\":\"cf-nel\",\"max_age\":604800}\n1 < Vary: Accept-Encoding\n1 < Server: cloudflare\n1 < CF-RAY: 7b6a7d3599e33c00-BLR\n{\"page\":2,\"per_page\":6,\"total\":12,\"total_pages\":2,\"data\":[{\"id\":7,\"email\":\"michael.lawson@reqres.in\",\"first_name\":\"Michael\",\"last_name\":\"Lawson\",\"avatar\":\"https:\/\/reqres.in\/img\/faces\/7-image.jpg\"},{\"id\":8,\"email\":\"lindsay.ferguson@reqres.in\",\"first_name\":\"Lindsay\",\"last_name\":\"Ferguson\",\"avatar\":\"https:\/\/reqres.in\/img\/faces\/8-image.jpg\"},{\"id\":9,\"email\":\"tobias.funke@reqres.in\",\"first_name\":\"Tobias\",\"last_name\":\"Funke\",\"avatar\":\"https:\/\/reqres.in\/img\/faces\/9-image.jpg\"},{\"id\":10,\"email\":\"byron.fields@reqres.in\",\"first_name\":\"Byron\",\"last_name\":\"Fields\",\"avatar\":\"https:\/\/reqres.in\/img\/faces\/10-image.jpg\"},{\"id\":11,\"email\":\"george.edwards@reqres.in\",\"first_name\":\"George\",\"last_name\":\"Edwards\",\"avatar\":\"https:\/\/reqres.in\/img\/faces\/11-image.jpg\"},{\"id\":12,\"email\":\"rachel.howell@reqres.in\",\"first_name\":\"Rachel\",\"last_name\":\"Howell\",\"avatar\":\"https:\/\/reqres.in\/img\/faces\/12-image.jpg\"}],\"support\":{\"url\":\"https:\/\/reqres.in\/#support-heading\",\"text\":\"To keep ReqRes free, contributions towards server costs are appreciated!\"}}\n\n"},{"result":{"nanos":1200250,"millis":1.20025,"status":"passed"},"step":{"line":9,"prefix":"Then","index":2,"text":"status 200"}}],"line":6,"description":"","durationMillis":445.071667,"failed":false,"tags":["debug"],"executorName":"pool-1-thread-1","name":"Run a sample Get API","startTime":1681292229480,"refId":"[1:6]","endTime":1681292230003,"exampleIndex":-1},{"sectionIndex":1,"stepResults":[{"result":{"nanos":350375,"millis":0.350375,"status":"passed"},"step":{"background":true,"line":4,"prefix":"*","index":0,"text":"url 'https:\/\/reqres.in\/api'"},"stepLog":"15:07:09.564 karate.env system property was: null \n"},{"result":{"nanos":175250,"millis":0.17525,"status":"passed"},"step":{"background":true,"line":5,"prefix":"*","index":1,"text":"header Accept = 'application\/json'"}},{"result":{"nanos":165708,"millis":0.165708,"status":"passed"},"step":{"line":12,"prefix":"Given","index":0,"text":"url 'https:\/\/reqres.in\/api\/users?page=2'"}},{"result":{"nanos":435643166,"millis":435.643166,"status":"passed"},"step":{"line":13,"prefix":"When","index":1,"text":"method GET"},"stepLog":"15:07:09.682 request:\n1 > GET https:\/\/reqres.in\/api\/users?page=2\n1 > Accept: application\/json\n1 > Host: reqres.in\n1 > Connection: Keep-Alive\n1 > User-Agent: Apache-HttpClient\/4.5.13 (Java\/20)\n1 > Accept-Encoding: gzip,deflate\n\n\n15:07:09.989 response time in milliseconds: 305\n1 < 200\n1 < Date: Wed, 12 Apr 2023 09:37:10 GMT\n1 < Content-Type: application\/json; charset=utf-8\n1 < Transfer-Encoding: chunked\n1 < Connection: keep-alive\n1 < X-Powered-By: Express\n1 < Access-Control-Allow-Origin: *\n1 < Etag: W\/\"406-ut0vzoCuidvyMf8arZpMpJ6ZRDw\"\n1 < Via: 1.1 vegur\n1 < Cache-Control: max-age=14400\n1 < CF-Cache-Status: HIT\n1 < Age: 2388\n1 < Report-To: {\"endpoints\":[{\"url\":\"https:\\\/\\\/a.nel.cloudflare.com\\\/report\\\/v3?s=IVv057mvIFTMT7iXjLaCdW9Jr9IuXbWY2gnoWo3cFLr17wnW6iRebDGrKc8FwI92vJCZ%2FlUZPDA4joCurCVvs8q24n3u6%2F6AvcSHybNoWJD1By5jo%2Bq2b6Ydlg%3D%3D\"}],\"group\":\"cf-nel\",\"max_age\":604800}\n1 < NEL: {\"success_fraction\":0,\"report_to\":\"cf-nel\",\"max_age\":604800}\n1 < Vary: Accept-Encoding\n1 < Server: cloudflare\n1 < CF-RAY: 7b6a7d359c3e83f5-BLR\n{\"page\":2,\"per_page\":6,\"total\":12,\"total_pages\":2,\"data\":[{\"id\":7,\"email\":\"michael.lawson@reqres.in\",\"first_name\":\"Michael\",\"last_name\":\"Lawson\",\"avatar\":\"https:\/\/reqres.in\/img\/faces\/7-image.jpg\"},{\"id\":8,\"email\":\"lindsay.ferguson@reqres.in\",\"first_name\":\"Lindsay\",\"last_name\":\"Ferguson\",\"avatar\":\"https:\/\/reqres.in\/img\/faces\/8-image.jpg\"},{\"id\":9,\"email\":\"tobias.funke@reqres.in\",\"first_name\":\"Tobias\",\"last_name\":\"Funke\",\"avatar\":\"https:\/\/reqres.in\/img\/faces\/9-image.jpg\"},{\"id\":10,\"email\":\"byron.fields@reqres.in\",\"first_name\":\"Byron\",\"last_name\":\"Fields\",\"avatar\":\"https:\/\/reqres.in\/img\/faces\/10-image.jpg\"},{\"id\":11,\"email\":\"george.edwards@reqres.in\",\"first_name\":\"George\",\"last_name\":\"Edwards\",\"avatar\":\"https:\/\/reqres.in\/img\/faces\/11-image.jpg\"},{\"id\":12,\"email\":\"rachel.howell@reqres.in\",\"first_name\":\"Rachel\",\"last_name\":\"Howell\",\"avatar\":\"https:\/\/reqres.in\/img\/faces\/12-image.jpg\"}],\"support\":{\"url\":\"https:\/\/reqres.in\/#support-heading\",\"text\":\"To keep ReqRes free, contributions towards server costs are appreciated!\"}}\n\n"},{"result":{"nanos":972000,"millis":0.972,"status":"passed"},"step":{"line":14,"prefix":"Then","index":2,"text":"status 200"}},{"result":{"nanos":5301750,"millis":5.30175,"status":"passed"},"step":{"line":15,"prefix":"And","index":3,"text":"print response"},"stepLog":"15:07:10.008 [print] {\n  \"page\": 2,\n  \"per_page\": 6,\n  \"total\": 12,\n  \"total_pages\": 2,\n  \"data\": [\n    {\n      \"id\": 7,\n      \"email\": \"michael.lawson@reqres.in\",\n      \"first_name\": \"Michael\",\n      \"last_name\": \"Lawson\",\n      \"avatar\": \"https:\/\/reqres.in\/img\/faces\/7-image.jpg\"\n    },\n    {\n      \"id\": 8,\n      \"email\": \"lindsay.ferguson@reqres.in\",\n      \"first_name\": \"Lindsay\",\n      \"last_name\": \"Ferguson\",\n      \"avatar\": \"https:\/\/reqres.in\/img\/faces\/8-image.jpg\"\n    },\n    {\n      \"id\": 9,\n      \"email\": \"tobias.funke@reqres.in\",\n      \"first_name\": \"Tobias\",\n      \"last_name\": \"Funke\",\n      \"avatar\": \"https:\/\/reqres.in\/img\/faces\/9-image.jpg\"\n    },\n    {\n      \"id\": 10,\n      \"email\": \"byron.fields@reqres.in\",\n      \"first_name\": \"Byron\",\n      \"last_name\": \"Fields\",\n      \"avatar\": \"https:\/\/reqres.in\/img\/faces\/10-image.jpg\"\n    },\n    {\n      \"id\": 11,\n      \"email\": \"george.edwards@reqres.in\",\n      \"first_name\": \"George\",\n      \"last_name\": \"Edwards\",\n      \"avatar\": \"https:\/\/reqres.in\/img\/faces\/11-image.jpg\"\n    },\n    {\n      \"id\": 12,\n      \"email\": \"rachel.howell@reqres.in\",\n      \"first_name\": \"Rachel\",\n      \"last_name\": \"Howell\",\n      \"avatar\": \"https:\/\/reqres.in\/img\/faces\/12-image.jpg\"\n    }\n  ],\n  \"support\": {\n    \"url\": \"https:\/\/reqres.in\/#support-heading\",\n    \"text\": \"To keep ReqRes free, contributions towards server costs are appreciated!\"\n  }\n}\n \n"},{"result":{"nanos":1017667,"millis":1.017667,"status":"passed"},"step":{"line":16,"prefix":"And","index":4,"text":"print responseStatus"},"stepLog":"15:07:10.010 [print] 200 \n"},{"result":{"nanos":1296625,"millis":1.296625,"status":"passed"},"step":{"line":17,"prefix":"And","index":5,"text":"print responseHeaders"},"stepLog":"15:07:10.011 [print] {\n  \"Date\": [\n    \"Wed, 12 Apr 2023 09:37:10 GMT\"\n  ],\n  \"Content-Type\": [\n    \"application\/json; charset=utf-8\"\n  ],\n  \"Transfer-Encoding\": [\n    \"chunked\"\n  ],\n  \"Connection\": [\n    \"keep-alive\"\n  ],\n  \"X-Powered-By\": [\n    \"Express\"\n  ],\n  \"Access-Control-Allow-Origin\": [\n    \"*\"\n  ],\n  \"Etag\": [\n    \"W\/\\\"406-ut0vzoCuidvyMf8arZpMpJ6ZRDw\\\"\"\n  ],\n  \"Via\": [\n    \"1.1 vegur\"\n  ],\n  \"Cache-Control\": [\n    \"max-age=14400\"\n  ],\n  \"CF-Cache-Status\": [\n    \"HIT\"\n  ],\n  \"Age\": [\n    \"2388\"\n  ],\n  \"Report-To\": [\n    \"{\\\"endpoints\\\":[{\\\"url\\\":\\\"https:\\\\\/\\\\\/a.nel.cloudflare.com\\\\\/report\\\\\/v3?s=IVv057mvIFTMT7iXjLaCdW9Jr9IuXbWY2gnoWo3cFLr17wnW6iRebDGrKc8FwI92vJCZ%2FlUZPDA4joCurCVvs8q24n3u6%2F6AvcSHybNoWJD1By5jo%2Bq2b6Ydlg%3D%3D\\\"}],\\\"group\\\":\\\"cf-nel\\\",\\\"max_age\\\":604800}\"\n  ],\n  \"NEL\": [\n    \"{\\\"success_fraction\\\":0,\\\"report_to\\\":\\\"cf-nel\\\",\\\"max_age\\\":604800}\"\n  ],\n  \"Vary\": [\n    \"Accept-Encoding\"\n  ],\n  \"Server\": [\n    \"cloudflare\"\n  ],\n  \"CF-RAY\": [\n    \"7b6a7d359c3e83f5-BLR\"\n  ],\n  \"Set-Cookie\": [\n  ]\n}\n \n"},{"result":{"nanos":380417,"millis":0.380417,"status":"passed"},"step":{"line":18,"prefix":"And","index":6,"text":"print responseTime"},"stepLog":"15:07:10.011 [print] 305 \n"},{"result":{"nanos":876834,"millis":0.876834,"status":"passed"},"step":{"line":19,"prefix":"And","index":7,"text":"print responseCookies"},"stepLog":"15:07:10.012 [print] {\n}\n \n"}],"line":11,"description":"","durationMillis":446.179792,"failed":false,"tags":["debug"],"executorName":"pool-1-thread-2","name":"Get demo1","startTime":1681292229480,"refId":"[2:11]","endTime":1681292230012,"exampleIndex":-1},{"sectionIndex":2,"stepResults":[{"result":{"nanos":291458,"millis":0.291458,"status":"passed"},"step":{"background":true,"line":4,"prefix":"*","index":0,"text":"url 'https:\/\/reqres.in\/api'"},"stepLog":"15:07:09.561 karate.env system property was: null \n"},{"result":{"nanos":251541,"millis":0.251541,"status":"passed"},"step":{"background":true,"line":5,"prefix":"*","index":1,"text":"header Accept = 'application\/json'"}},{"result":{"nanos":432875,"millis":0.432875,"status":"passed"},"step":{"line":23,"prefix":"Given","index":0,"text":"path '\/users\/2'"}},{"result":{"nanos":437994125,"millis":437.994125,"status":"passed"},"step":{"line":24,"prefix":"When","index":1,"text":"method GET"},"stepLog":"15:07:09.682 request:\n1 > GET https:\/\/reqres.in\/api\/users\/2\n1 > Accept: application\/json\n1 > Host: reqres.in\n1 > Connection: Keep-Alive\n1 > User-Agent: Apache-HttpClient\/4.5.13 (Java\/20)\n1 > Accept-Encoding: gzip,deflate\n\n\n15:07:09.992 response time in milliseconds: 309\n1 < 200\n1 < Date: Wed, 12 Apr 2023 09:37:10 GMT\n1 < Content-Type: application\/json; charset=utf-8\n1 < Transfer-Encoding: chunked\n1 < Connection: keep-alive\n1 < X-Powered-By: Express\n1 < Access-Control-Allow-Origin: *\n1 < Etag: W\/\"118-pbdwwFo9SKNhD3Lx5iHJyngpq00\"\n1 < Via: 1.1 vegur\n1 < Cache-Control: max-age=14400\n1 < CF-Cache-Status: HIT\n1 < Age: 532\n1 < Report-To: {\"endpoints\":[{\"url\":\"https:\\\/\\\/a.nel.cloudflare.com\\\/report\\\/v3?s=z4nohyIEnSHVAtRMYLi0u4Oilxw%2F%2FYzF3UPxzrUx76lRNu1qVX0sUH8jYngwSUn2tjd%2BQsIShvP77I0Pjc4oWSfKUfMYfLKqZAyTVTNcp%2BfYc3UHOMgAtPMXLQ%3D%3D\"}],\"group\":\"cf-nel\",\"max_age\":604800}\n1 < NEL: {\"success_fraction\":0,\"report_to\":\"cf-nel\",\"max_age\":604800}\n1 < Vary: Accept-Encoding\n1 < Server: cloudflare\n1 < CF-RAY: 7b6a7d359bb23c0d-BLR\n{\"data\":{\"id\":2,\"email\":\"janet.weaver@reqres.in\",\"first_name\":\"Janet\",\"last_name\":\"Weaver\",\"avatar\":\"https:\/\/reqres.in\/img\/faces\/2-image.jpg\"},\"support\":{\"url\":\"https:\/\/reqres.in\/#support-heading\",\"text\":\"To keep ReqRes free, contributions towards server costs are appreciated!\"}}\n\n"},{"result":{"nanos":1444500,"millis":1.4445,"status":"passed"},"step":{"line":25,"prefix":"Then","index":2,"text":"status 200"}}],"line":22,"description":"","durationMillis":440.414499,"failed":false,"tags":["debug"],"executorName":"pool-1-thread-3","name":"Get demo 2","startTime":1681292229480,"refId":"[3:22]","endTime":1681292230003,"exampleIndex":-1},{"sectionIndex":3,"stepResults":[{"result":{"nanos":232958,"millis":0.232958,"status":"passed"},"step":{"background":true,"line":4,"prefix":"*","index":0,"text":"url 'https:\/\/reqres.in\/api'"},"stepLog":"15:07:09.557 karate.env system property was: null \n"},{"result":{"nanos":173333,"millis":0.173333,"status":"passed"},"step":{"background":true,"line":5,"prefix":"*","index":1,"text":"header Accept = 'application\/json'"}},{"result":{"nanos":137500,"millis":0.1375,"status":"passed"},"step":{"line":29,"prefix":"Given","index":0,"text":"path '\/users'"}},{"result":{"nanos":232875,"millis":0.232875,"status":"passed"},"step":{"line":30,"prefix":"And","index":1,"text":"param page = 2"}},{"result":{"nanos":441966166,"millis":441.966166,"status":"passed"},"step":{"line":31,"prefix":"When","index":2,"text":"method GET"},"stepLog":"15:07:09.682 request:\n1 > GET https:\/\/reqres.in\/api\/users?page=2\n1 > Accept: application\/json\n1 > Host: reqres.in\n1 > Connection: Keep-Alive\n1 > User-Agent: Apache-HttpClient\/4.5.13 (Java\/20)\n1 > Accept-Encoding: gzip,deflate\n\n\n15:07:09.992 response time in milliseconds: 309\n1 < 200\n1 < Date: Wed, 12 Apr 2023 09:37:10 GMT\n1 < Content-Type: application\/json; charset=utf-8\n1 < Transfer-Encoding: chunked\n1 < Connection: keep-alive\n1 < X-Powered-By: Express\n1 < Access-Control-Allow-Origin: *\n1 < Etag: W\/\"406-ut0vzoCuidvyMf8arZpMpJ6ZRDw\"\n1 < Via: 1.1 vegur\n1 < Cache-Control: max-age=14400\n1 < CF-Cache-Status: HIT\n1 < Age: 2388\n1 < Report-To: {\"endpoints\":[{\"url\":\"https:\\\/\\\/a.nel.cloudflare.com\\\/report\\\/v3?s=GK1aFz%2BfBY8UQ6OJaWY2NK4WkucXd%2FkQrrzXsb3oftKWTFpxNwr6KJIS4ySQPOFKCGLmpUyrS2D6TYnoq4ORElefvD59tQpxLVzSqk7O4ASH7Lr8qzRi72i%2BWw%3D%3D\"}],\"group\":\"cf-nel\",\"max_age\":604800}\n1 < NEL: {\"success_fraction\":0,\"report_to\":\"cf-nel\",\"max_age\":604800}\n1 < Vary: Accept-Encoding\n1 < Server: cloudflare\n1 < CF-RAY: 7b6a7d359a3b3c0c-BLR\n{\"page\":2,\"per_page\":6,\"total\":12,\"total_pages\":2,\"data\":[{\"id\":7,\"email\":\"michael.lawson@reqres.in\",\"first_name\":\"Michael\",\"last_name\":\"Lawson\",\"avatar\":\"https:\/\/reqres.in\/img\/faces\/7-image.jpg\"},{\"id\":8,\"email\":\"lindsay.ferguson@reqres.in\",\"first_name\":\"Lindsay\",\"last_name\":\"Ferguson\",\"avatar\":\"https:\/\/reqres.in\/img\/faces\/8-image.jpg\"},{\"id\":9,\"email\":\"tobias.funke@reqres.in\",\"first_name\":\"Tobias\",\"last_name\":\"Funke\",\"avatar\":\"https:\/\/reqres.in\/img\/faces\/9-image.jpg\"},{\"id\":10,\"email\":\"byron.fields@reqres.in\",\"first_name\":\"Byron\",\"last_name\":\"Fields\",\"avatar\":\"https:\/\/reqres.in\/img\/faces\/10-image.jpg\"},{\"id\":11,\"email\":\"george.edwards@reqres.in\",\"first_name\":\"George\",\"last_name\":\"Edwards\",\"avatar\":\"https:\/\/reqres.in\/img\/faces\/11-image.jpg\"},{\"id\":12,\"email\":\"rachel.howell@reqres.in\",\"first_name\":\"Rachel\",\"last_name\":\"Howell\",\"avatar\":\"https:\/\/reqres.in\/img\/faces\/12-image.jpg\"}],\"support\":{\"url\":\"https:\/\/reqres.in\/#support-heading\",\"text\":\"To keep ReqRes free, contributions towards server costs are appreciated!\"}}\n\n"},{"result":{"nanos":1313666,"millis":1.313666,"status":"passed"},"step":{"line":32,"prefix":"Then","index":3,"text":"status 200"}}],"line":28,"description":"","durationMillis":444.056498,"failed":false,"tags":["debug"],"executorName":"pool-1-thread-4","name":"Get demo 3","startTime":1681292229480,"refId":"[4:28]","endTime":1681292230003,"exampleIndex":-1},{"sectionIndex":4,"stepResults":[{"result":{"nanos":820500,"millis":0.8205,"status":"passed"},"step":{"background":true,"line":4,"prefix":"*","index":0,"text":"url 'https:\/\/reqres.in\/api'"},"stepLog":"15:07:09.539 karate.env system property was: null \n"},{"result":{"nanos":783834,"millis":0.783834,"status":"passed"},"step":{"background":true,"line":5,"prefix":"*","index":1,"text":"header Accept = 'application\/json'"}},{"result":{"nanos":193250,"millis":0.19325,"status":"passed"},"step":{"line":36,"prefix":"Given","index":0,"text":"path '\/users'"}},{"result":{"nanos":352375,"millis":0.352375,"status":"passed"},"step":{"line":37,"prefix":"And","index":1,"text":"param page = 2"}},{"result":{"nanos":442113083,"millis":442.113083,"status":"passed"},"step":{"line":38,"prefix":"When","index":2,"text":"method GET"},"stepLog":"15:07:09.682 request:\n1 > GET https:\/\/reqres.in\/api\/users?page=2\n1 > Accept: application\/json\n1 > Host: reqres.in\n1 > Connection: Keep-Alive\n1 > User-Agent: Apache-HttpClient\/4.5.13 (Java\/20)\n1 > Accept-Encoding: gzip,deflate\n\n\n15:07:09.988 response time in milliseconds: 305\n1 < 200\n1 < Date: Wed, 12 Apr 2023 09:37:10 GMT\n1 < Content-Type: application\/json; charset=utf-8\n1 < Transfer-Encoding: chunked\n1 < Connection: keep-alive\n1 < X-Powered-By: Express\n1 < Access-Control-Allow-Origin: *\n1 < Etag: W\/\"406-ut0vzoCuidvyMf8arZpMpJ6ZRDw\"\n1 < Via: 1.1 vegur\n1 < Cache-Control: max-age=14400\n1 < CF-Cache-Status: HIT\n1 < Age: 2388\n1 < Report-To: {\"endpoints\":[{\"url\":\"https:\\\/\\\/a.nel.cloudflare.com\\\/report\\\/v3?s=D2tpLDgnJ75tXUlNdrBOGlbys2OMeEk2y4BvpJ3HLwt6eTH8h2GORNL5hAnpM7xjdpyjApIJ0RG5vwkFH45azeJfaIqdvTvHiICxdAafssj%2FCvsF81n15jx8ag%3D%3D\"}],\"group\":\"cf-nel\",\"max_age\":604800}\n1 < NEL: {\"success_fraction\":0,\"report_to\":\"cf-nel\",\"max_age\":604800}\n1 < Vary: Accept-Encoding\n1 < Server: cloudflare\n1 < CF-RAY: 7b6a7d359e633c12-BLR\n{\"page\":2,\"per_page\":6,\"total\":12,\"total_pages\":2,\"data\":[{\"id\":7,\"email\":\"michael.lawson@reqres.in\",\"first_name\":\"Michael\",\"last_name\":\"Lawson\",\"avatar\":\"https:\/\/reqres.in\/img\/faces\/7-image.jpg\"},{\"id\":8,\"email\":\"lindsay.ferguson@reqres.in\",\"first_name\":\"Lindsay\",\"last_name\":\"Ferguson\",\"avatar\":\"https:\/\/reqres.in\/img\/faces\/8-image.jpg\"},{\"id\":9,\"email\":\"tobias.funke@reqres.in\",\"first_name\":\"Tobias\",\"last_name\":\"Funke\",\"avatar\":\"https:\/\/reqres.in\/img\/faces\/9-image.jpg\"},{\"id\":10,\"email\":\"byron.fields@reqres.in\",\"first_name\":\"Byron\",\"last_name\":\"Fields\",\"avatar\":\"https:\/\/reqres.in\/img\/faces\/10-image.jpg\"},{\"id\":11,\"email\":\"george.edwards@reqres.in\",\"first_name\":\"George\",\"last_name\":\"Edwards\",\"avatar\":\"https:\/\/reqres.in\/img\/faces\/11-image.jpg\"},{\"id\":12,\"email\":\"rachel.howell@reqres.in\",\"first_name\":\"Rachel\",\"last_name\":\"Howell\",\"avatar\":\"https:\/\/reqres.in\/img\/faces\/12-image.jpg\"}],\"support\":{\"url\":\"https:\/\/reqres.in\/#support-heading\",\"text\":\"To keep ReqRes free, contributions towards server costs are appreciated!\"}}\n\n"},{"result":{"nanos":1147791,"millis":1.147791,"status":"passed"},"step":{"line":39,"prefix":"Then","index":3,"text":"status 200"}},{"result":{"nanos":17188750,"millis":17.18875,"status":"passed"},"step":{"line":40,"prefix":"And","index":4,"text":"match response.data[0].first_name != null"}},{"result":{"nanos":579125,"millis":0.579125,"status":"passed"},"step":{"line":41,"prefix":"And","index":5,"text":"match $.data[1].id == '#number'"}},{"result":{"nanos":325917,"millis":0.325917,"status":"passed"},"step":{"line":42,"prefix":"And","index":6,"text":"match $.data[3].last_name == '#string'"}}],"line":35,"description":"","durationMillis":463.504625,"failed":false,"tags":["debug"],"executorName":"pool-1-thread-5","name":"Get demo 4","startTime":1681292229480,"refId":"[5:35]","endTime":1681292230021,"exampleIndex":-1},{"sectionIndex":5,"stepResults":[{"result":{"nanos":333500,"millis":0.3335,"status":"passed"},"step":{"background":true,"line":4,"prefix":"*","index":0,"text":"url 'https:\/\/reqres.in\/api'"},"stepLog":"15:07:10.012 karate.env system property was: null \n"},{"result":{"nanos":423833,"millis":0.423833,"status":"passed"},"step":{"background":true,"line":5,"prefix":"*","index":1,"text":"header Accept = 'application\/json'"}},{"result":{"nanos":2065209,"millis":2.065209,"status":"passed"},"step":{"line":45,"prefix":"Given","index":0,"text":"path '\/users', id"}},{"result":{"nanos":369382166,"millis":369.382166,"status":"passed"},"step":{"line":46,"prefix":"When","index":1,"text":"method GET"},"stepLog":"15:07:10.016 request:\n1 > GET https:\/\/reqres.in\/api\/users\/3\n1 > Accept: application\/json\n1 > Host: reqres.in\n1 > Connection: Keep-Alive\n1 > User-Agent: Apache-HttpClient\/4.5.13 (Java\/20)\n1 > Accept-Encoding: gzip,deflate\n\n\n15:07:10.382 response time in milliseconds: 365\n1 < 200\n1 < Date: Wed, 12 Apr 2023 09:37:10 GMT\n1 < Content-Type: application\/json; charset=utf-8\n1 < Transfer-Encoding: chunked\n1 < Connection: keep-alive\n1 < X-Powered-By: Express\n1 < Access-Control-Allow-Origin: *\n1 < Etag: W\/\"112-EeInfgHWtnxhYRnwgZUB667e024\"\n1 < Via: 1.1 vegur\n1 < Cache-Control: max-age=14400\n1 < CF-Cache-Status: REVALIDATED\n1 < Report-To: {\"endpoints\":[{\"url\":\"https:\\\/\\\/a.nel.cloudflare.com\\\/report\\\/v3?s=8OoHj%2FIGqmm%2B%2FLLMmInMnNeY%2B2urY03mWHOgkCrsTcOwM75zf0b0JcbV0Qa9ODdCM51M8Z3gepdEpjiRX7dXZLbunbd6wI8yBWB9CPmkCB0Dwcf1lEug0UYCqQ%3D%3D\"}],\"group\":\"cf-nel\",\"max_age\":604800}\n1 < NEL: {\"success_fraction\":0,\"report_to\":\"cf-nel\",\"max_age\":604800}\n1 < Vary: Accept-Encoding\n1 < Server: cloudflare\n1 < CF-RAY: 7b6a7d360abf3c0c-BLR\n{\"data\":{\"id\":3,\"email\":\"emma.wong@reqres.in\",\"first_name\":\"Emma\",\"last_name\":\"Wong\",\"avatar\":\"https:\/\/reqres.in\/img\/faces\/3-image.jpg\"},\"support\":{\"url\":\"https:\/\/reqres.in\/#support-heading\",\"text\":\"To keep ReqRes free, contributions towards server costs are appreciated!\"}}\n\n"},{"result":{"nanos":41084,"millis":0.041084,"status":"passed"},"step":{"line":47,"prefix":"Then","index":2,"text":"status 200"}}],"line":50,"description":"","durationMillis":372.245792,"failed":false,"tags":["debug"],"executorName":"pool-1-thread-3","name":"GET demo 5","startTime":1681292230007,"refId":"[6.1:50]","endTime":1681292230385,"exampleData":{"id":"3"},"exampleIndex":0},{"sectionIndex":5,"stepResults":[{"result":{"nanos":310417,"millis":0.310417,"status":"passed"},"step":{"background":true,"line":4,"prefix":"*","index":0,"text":"url 'https:\/\/reqres.in\/api'"},"stepLog":"15:07:10.014 karate.env system property was: null \n"},{"result":{"nanos":176625,"millis":0.176625,"status":"passed"},"step":{"background":true,"line":5,"prefix":"*","index":1,"text":"header Accept = 'application\/json'"}},{"result":{"nanos":518167,"millis":0.518167,"status":"passed"},"step":{"line":45,"prefix":"Given","index":0,"text":"path '\/users', id"}},{"result":{"nanos":370090375,"millis":370.090375,"status":"passed"},"step":{"line":46,"prefix":"When","index":1,"text":"method GET"},"stepLog":"15:07:10.017 request:\n1 > GET https:\/\/reqres.in\/api\/users\/4\n1 > Accept: application\/json\n1 > Host: reqres.in\n1 > Connection: Keep-Alive\n1 > User-Agent: Apache-HttpClient\/4.5.13 (Java\/20)\n1 > Accept-Encoding: gzip,deflate\n\n\n15:07:10.384 response time in milliseconds: 364\n1 < 200\n1 < Date: Wed, 12 Apr 2023 09:37:10 GMT\n1 < Content-Type: application\/json; charset=utf-8\n1 < Transfer-Encoding: chunked\n1 < Connection: keep-alive\n1 < X-Powered-By: Express\n1 < Access-Control-Allow-Origin: *\n1 < Etag: W\/\"110-Xdg3LtI+q2zMxihHlfeIZQo\/bvY\"\n1 < Via: 1.1 vegur\n1 < Cache-Control: max-age=14400\n1 < CF-Cache-Status: MISS\n1 < Report-To: {\"endpoints\":[{\"url\":\"https:\\\/\\\/a.nel.cloudflare.com\\\/report\\\/v3?s=KpCTLj5HRE2t3DXETW2DovLT34IEPhSbJZdrKzrvJbLTZIes0XfaYqXDYPCVsCwV8WBvI1pPofeuxbx2LEP9wFsMPSVPVIdHpPpwCPkF7ckLv%2Bbs0m%2FJdBWFoA%3D%3D\"}],\"group\":\"cf-nel\",\"max_age\":604800}\n1 < NEL: {\"success_fraction\":0,\"report_to\":\"cf-nel\",\"max_age\":604800}\n1 < Vary: Accept-Encoding\n1 < Server: cloudflare\n1 < CF-RAY: 7b6a7d361ac63c0c-BLR\n{\"data\":{\"id\":4,\"email\":\"eve.holt@reqres.in\",\"first_name\":\"Eve\",\"last_name\":\"Holt\",\"avatar\":\"https:\/\/reqres.in\/img\/faces\/4-image.jpg\"},\"support\":{\"url\":\"https:\/\/reqres.in\/#support-heading\",\"text\":\"To keep ReqRes free, contributions towards server costs are appreciated!\"}}\n\n"},{"result":{"nanos":11667,"millis":0.011667,"status":"passed"},"step":{"line":47,"prefix":"Then","index":2,"text":"status 200"}}],"line":51,"description":"","durationMillis":371.107251,"failed":false,"tags":["debug"],"executorName":"pool-1-thread-4","name":"GET demo 5","startTime":1681292230007,"refId":"[6.2:51]","endTime":1681292230387,"exampleData":{"id":"4"},"exampleIndex":1},{"sectionIndex":5,"stepResults":[{"result":{"nanos":230750,"millis":0.23075,"status":"passed"},"step":{"background":true,"line":4,"prefix":"*","index":0,"text":"url 'https:\/\/reqres.in\/api'"},"stepLog":"15:07:10.009 karate.env system property was: null \n"},{"result":{"nanos":186833,"millis":0.186833,"status":"passed"},"step":{"background":true,"line":5,"prefix":"*","index":1,"text":"header Accept = 'application\/json'"}},{"result":{"nanos":4605333,"millis":4.605333,"status":"passed"},"step":{"line":45,"prefix":"Given","index":0,"text":"path '\/users', id"}},{"result":{"nanos":370122667,"millis":370.122667,"status":"passed"},"step":{"line":46,"prefix":"When","index":1,"text":"method GET"},"stepLog":"15:07:10.017 request:\n1 > GET https:\/\/reqres.in\/api\/users\/5\n1 > Accept: application\/json\n1 > Host: reqres.in\n1 > Connection: Keep-Alive\n1 > User-Agent: Apache-HttpClient\/4.5.13 (Java\/20)\n1 > Accept-Encoding: gzip,deflate\n\n\n15:07:10.383 response time in milliseconds: 364\n1 < 200\n1 < Date: Wed, 12 Apr 2023 09:37:10 GMT\n1 < Content-Type: application\/json; charset=utf-8\n1 < Transfer-Encoding: chunked\n1 < Connection: keep-alive\n1 < X-Powered-By: Express\n1 < Access-Control-Allow-Origin: *\n1 < Etag: W\/\"11c-fbAvBCQSZgUU6dvLRqxYG0dwUTM\"\n1 < Via: 1.1 vegur\n1 < Cache-Control: max-age=14400\n1 < CF-Cache-Status: MISS\n1 < Report-To: {\"endpoints\":[{\"url\":\"https:\\\/\\\/a.nel.cloudflare.com\\\/report\\\/v3?s=r%2Bh8bBvB1rFzo41IpAXIAXvQr%2FenoJCr6ShaduGrEiCMLPpyjt5thVrq6REYzNtWVt9oVpPTHvUh9S3WcqzgPSO%2FblBD3IlERSnMlOeYbMoXQlji6FroHN6naQ%3D%3D\"}],\"group\":\"cf-nel\",\"max_age\":604800}\n1 < NEL: {\"success_fraction\":0,\"report_to\":\"cf-nel\",\"max_age\":604800}\n1 < Vary: Accept-Encoding\n1 < Server: cloudflare\n1 < CF-RAY: 7b6a7d361bdb83f3-BLR\n{\"data\":{\"id\":5,\"email\":\"charles.morris@reqres.in\",\"first_name\":\"Charles\",\"last_name\":\"Morris\",\"avatar\":\"https:\/\/reqres.in\/img\/faces\/5-image.jpg\"},\"support\":{\"url\":\"https:\/\/reqres.in\/#support-heading\",\"text\":\"To keep ReqRes free, contributions towards server costs are appreciated!\"}}\n\n"},{"result":{"nanos":12500,"millis":0.0125,"status":"passed"},"step":{"line":47,"prefix":"Then","index":2,"text":"status 200"}}],"line":52,"description":"","durationMillis":375.158083,"failed":false,"tags":["debug"],"executorName":"pool-1-thread-1","name":"GET demo 5","startTime":1681292230007,"refId":"[6.3:52]","endTime":1681292230386,"exampleData":{"id":"5"},"exampleIndex":2}],"callDepth":0,"name":"Test demo API","description":"","resultDate":"2023-04-12 03:07:10 pm","durationMillis":3357.738207,"passedCount":8}