{"failedCount":0,"prefixedPath":"kdemo\/src\/test\/java\/demo\/features\/GetCallDemo.feature","packageQualifiedName":"kdemo.src.test.java.demo.features.GetCallDemo","loopIndex":-1,"relativePath":"kdemo\/src\/test\/java\/demo\/features\/GetCallDemo.feature","scenarioResults":[{"sectionIndex":0,"stepResults":[{"result":{"nanos":29609417,"millis":29.609417,"status":"passed"},"step":{"background":true,"line":3,"prefix":"*","index":0,"text":"url 'https:\/\/reqres.in\/api'"}},{"result":{"nanos":345917,"millis":0.345917,"status":"passed"},"step":{"background":true,"line":4,"prefix":"*","index":1,"text":"header Accept = 'application\/json'"}},{"result":{"nanos":196625,"millis":0.196625,"status":"passed"},"step":{"line":6,"prefix":"Given","index":0,"text":"url 'https:\/\/reqres.in\/api\/users?page=2'"}},{"result":{"nanos":368854417,"millis":368.854417,"status":"passed"},"step":{"line":7,"prefix":"When","index":1,"text":"method GET"},"stepLog":"14:26:28.497 request:\n1 > GET https:\/\/reqres.in\/api\/users?page=2\n1 > Accept: application\/json\n1 > Host: reqres.in\n1 > Connection: Keep-Alive\n1 > User-Agent: Apache-HttpClient\/4.5.14 (Java\/17.0.6)\n1 > Accept-Encoding: gzip,deflate\n\n\n14:26:28.748 response time in milliseconds: 248\n1 < 200\n1 < Date: Thu, 06 Apr 2023 08:56:29 GMT\n1 < Content-Type: application\/json; charset=utf-8\n1 < Transfer-Encoding: chunked\n1 < Connection: keep-alive\n1 < X-Powered-By: Express\n1 < Access-Control-Allow-Origin: *\n1 < Etag: W\/\"406-ut0vzoCuidvyMf8arZpMpJ6ZRDw\"\n1 < Via: 1.1 vegur\n1 < Cache-Control: max-age=14400\n1 < CF-Cache-Status: HIT\n1 < Age: 4686\n1 < Report-To: {\"endpoints\":[{\"url\":\"https:\\\/\\\/a.nel.cloudflare.com\\\/report\\\/v3?s=JMOzpqSpA9u8giaKKH4xDHRm8ICzWh2q9tvsaHo01ojkkT5CyG9Y4RIUPLO%2FIU2rDvnM2AiyekNQjdWErECM2xRqTQIyz%2FJUkzQvjaeqYhMrEByCDq77MTkzTw%3D%3D\"}],\"group\":\"cf-nel\",\"max_age\":604800}\n1 < NEL: {\"success_fraction\":0,\"report_to\":\"cf-nel\",\"max_age\":604800}\n1 < Vary: Accept-Encoding\n1 < Server: cloudflare\n1 < CF-RAY: 7b38d15d5d601924-SIN\n{\"page\":2,\"per_page\":6,\"total\":12,\"total_pages\":2,\"data\":[{\"id\":7,\"email\":\"michael.lawson@reqres.in\",\"first_name\":\"Michael\",\"last_name\":\"Lawson\",\"avatar\":\"https:\/\/reqres.in\/img\/faces\/7-image.jpg\"},{\"id\":8,\"email\":\"lindsay.ferguson@reqres.in\",\"first_name\":\"Lindsay\",\"last_name\":\"Ferguson\",\"avatar\":\"https:\/\/reqres.in\/img\/faces\/8-image.jpg\"},{\"id\":9,\"email\":\"tobias.funke@reqres.in\",\"first_name\":\"Tobias\",\"last_name\":\"Funke\",\"avatar\":\"https:\/\/reqres.in\/img\/faces\/9-image.jpg\"},{\"id\":10,\"email\":\"byron.fields@reqres.in\",\"first_name\":\"Byron\",\"last_name\":\"Fields\",\"avatar\":\"https:\/\/reqres.in\/img\/faces\/10-image.jpg\"},{\"id\":11,\"email\":\"george.edwards@reqres.in\",\"first_name\":\"George\",\"last_name\":\"Edwards\",\"avatar\":\"https:\/\/reqres.in\/img\/faces\/11-image.jpg\"},{\"id\":12,\"email\":\"rachel.howell@reqres.in\",\"first_name\":\"Rachel\",\"last_name\":\"Howell\",\"avatar\":\"https:\/\/reqres.in\/img\/faces\/12-image.jpg\"}],\"support\":{\"url\":\"https:\/\/reqres.in\/#support-heading\",\"text\":\"To keep ReqRes free, contributions towards server costs are appreciated!\"}}\n\n"},{"result":{"nanos":14542,"millis":0.014542,"status":"passed"},"step":{"line":8,"prefix":"Then","index":2,"text":"status 200"}}],"executorName":"main","line":5,"name":"Run a sample Get API","description":"","durationMillis":399.020918,"startTime":1680771388356,"failed":false,"refId":"[1:5]","endTime":1680771388760,"exampleIndex":-1},{"sectionIndex":1,"stepResults":[{"result":{"nanos":323042,"millis":0.323042,"status":"passed"},"step":{"background":true,"line":3,"prefix":"*","index":0,"text":"url 'https:\/\/reqres.in\/api'"}},{"result":{"nanos":199167,"millis":0.199167,"status":"passed"},"step":{"background":true,"line":4,"prefix":"*","index":1,"text":"header Accept = 'application\/json'"}},{"result":{"nanos":191334,"millis":0.191334,"status":"passed"},"step":{"line":11,"prefix":"Given","index":0,"text":"url 'https:\/\/reqres.in\/api\/users?page=2'"}},{"result":{"nanos":153985834,"millis":153.985834,"status":"passed"},"step":{"line":12,"prefix":"When","index":1,"text":"method GET"},"stepLog":"14:26:28.764 request:\n1 > GET https:\/\/reqres.in\/api\/users?page=2\n1 > Accept: application\/json\n1 > Host: reqres.in\n1 > Connection: Keep-Alive\n1 > User-Agent: Apache-HttpClient\/4.5.14 (Java\/17.0.6)\n1 > Accept-Encoding: gzip,deflate\n\n\n14:26:28.917 response time in milliseconds: 152\n1 < 200\n1 < Date: Thu, 06 Apr 2023 08:56:29 GMT\n1 < Content-Type: application\/json; charset=utf-8\n1 < Transfer-Encoding: chunked\n1 < Connection: keep-alive\n1 < X-Powered-By: Express\n1 < Access-Control-Allow-Origin: *\n1 < Etag: W\/\"406-ut0vzoCuidvyMf8arZpMpJ6ZRDw\"\n1 < Via: 1.1 vegur\n1 < Cache-Control: max-age=14400\n1 < CF-Cache-Status: HIT\n1 < Age: 4686\n1 < Report-To: {\"endpoints\":[{\"url\":\"https:\\\/\\\/a.nel.cloudflare.com\\\/report\\\/v3?s=ELw%2Fw2HVrcdK7%2F%2BGdREpQwYUm5d59XXvNUz8AHtE0ohD8BRrMMdIP1%2BS4IVSEo22SlZ16ZGcKsMKVBFVCgKNxsKLKvbZl%2Bejdsvoej18F7OxAh%2BFJmBXgCoo1w%3D%3D\"}],\"group\":\"cf-nel\",\"max_age\":604800}\n1 < NEL: {\"success_fraction\":0,\"report_to\":\"cf-nel\",\"max_age\":604800}\n1 < Vary: Accept-Encoding\n1 < Server: cloudflare\n1 < CF-RAY: 7b38d15e7f74ab50-SIN\n{\"page\":2,\"per_page\":6,\"total\":12,\"total_pages\":2,\"data\":[{\"id\":7,\"email\":\"michael.lawson@reqres.in\",\"first_name\":\"Michael\",\"last_name\":\"Lawson\",\"avatar\":\"https:\/\/reqres.in\/img\/faces\/7-image.jpg\"},{\"id\":8,\"email\":\"lindsay.ferguson@reqres.in\",\"first_name\":\"Lindsay\",\"last_name\":\"Ferguson\",\"avatar\":\"https:\/\/reqres.in\/img\/faces\/8-image.jpg\"},{\"id\":9,\"email\":\"tobias.funke@reqres.in\",\"first_name\":\"Tobias\",\"last_name\":\"Funke\",\"avatar\":\"https:\/\/reqres.in\/img\/faces\/9-image.jpg\"},{\"id\":10,\"email\":\"byron.fields@reqres.in\",\"first_name\":\"Byron\",\"last_name\":\"Fields\",\"avatar\":\"https:\/\/reqres.in\/img\/faces\/10-image.jpg\"},{\"id\":11,\"email\":\"george.edwards@reqres.in\",\"first_name\":\"George\",\"last_name\":\"Edwards\",\"avatar\":\"https:\/\/reqres.in\/img\/faces\/11-image.jpg\"},{\"id\":12,\"email\":\"rachel.howell@reqres.in\",\"first_name\":\"Rachel\",\"last_name\":\"Howell\",\"avatar\":\"https:\/\/reqres.in\/img\/faces\/12-image.jpg\"}],\"support\":{\"url\":\"https:\/\/reqres.in\/#support-heading\",\"text\":\"To keep ReqRes free, contributions towards server costs are appreciated!\"}}\n\n"},{"result":{"nanos":7125,"millis":0.007125,"status":"passed"},"step":{"line":13,"prefix":"Then","index":2,"text":"status 200"}},{"result":{"nanos":38168541,"millis":38.168541,"status":"passed"},"step":{"line":14,"prefix":"And","index":3,"text":"print response"},"stepLog":"14:26:28.955 [print] {\n  \"page\": 2,\n  \"per_page\": 6,\n  \"total\": 12,\n  \"total_pages\": 2,\n  \"data\": [\n    {\n      \"id\": 7,\n      \"email\": \"michael.lawson@reqres.in\",\n      \"first_name\": \"Michael\",\n      \"last_name\": \"Lawson\",\n      \"avatar\": \"https:\/\/reqres.in\/img\/faces\/7-image.jpg\"\n    },\n    {\n      \"id\": 8,\n      \"email\": \"lindsay.ferguson@reqres.in\",\n      \"first_name\": \"Lindsay\",\n      \"last_name\": \"Ferguson\",\n      \"avatar\": \"https:\/\/reqres.in\/img\/faces\/8-image.jpg\"\n    },\n    {\n      \"id\": 9,\n      \"email\": \"tobias.funke@reqres.in\",\n      \"first_name\": \"Tobias\",\n      \"last_name\": \"Funke\",\n      \"avatar\": \"https:\/\/reqres.in\/img\/faces\/9-image.jpg\"\n    },\n    {\n      \"id\": 10,\n      \"email\": \"byron.fields@reqres.in\",\n      \"first_name\": \"Byron\",\n      \"last_name\": \"Fields\",\n      \"avatar\": \"https:\/\/reqres.in\/img\/faces\/10-image.jpg\"\n    },\n    {\n      \"id\": 11,\n      \"email\": \"george.edwards@reqres.in\",\n      \"first_name\": \"George\",\n      \"last_name\": \"Edwards\",\n      \"avatar\": \"https:\/\/reqres.in\/img\/faces\/11-image.jpg\"\n    },\n    {\n      \"id\": 12,\n      \"email\": \"rachel.howell@reqres.in\",\n      \"first_name\": \"Rachel\",\n      \"last_name\": \"Howell\",\n      \"avatar\": \"https:\/\/reqres.in\/img\/faces\/12-image.jpg\"\n    }\n  ],\n  \"support\": {\n    \"url\": \"https:\/\/reqres.in\/#support-heading\",\n    \"text\": \"To keep ReqRes free, contributions towards server costs are appreciated!\"\n  }\n}\n \n"},{"result":{"nanos":2378292,"millis":2.378292,"status":"passed"},"step":{"line":15,"prefix":"And","index":4,"text":"print responseStatus"},"stepLog":"14:26:28.958 [print] 200 \n"},{"result":{"nanos":802500,"millis":0.8025,"status":"passed"},"step":{"line":16,"prefix":"And","index":5,"text":"print responseHeaders"},"stepLog":"14:26:28.959 [print] {\n  \"Date\": [\n    \"Thu, 06 Apr 2023 08:56:29 GMT\"\n  ],\n  \"Content-Type\": [\n    \"application\/json; charset=utf-8\"\n  ],\n  \"Transfer-Encoding\": [\n    \"chunked\"\n  ],\n  \"Connection\": [\n    \"keep-alive\"\n  ],\n  \"X-Powered-By\": [\n    \"Express\"\n  ],\n  \"Access-Control-Allow-Origin\": [\n    \"*\"\n  ],\n  \"Etag\": [\n    \"W\/\\\"406-ut0vzoCuidvyMf8arZpMpJ6ZRDw\\\"\"\n  ],\n  \"Via\": [\n    \"1.1 vegur\"\n  ],\n  \"Cache-Control\": [\n    \"max-age=14400\"\n  ],\n  \"CF-Cache-Status\": [\n    \"HIT\"\n  ],\n  \"Age\": [\n    \"4686\"\n  ],\n  \"Report-To\": [\n    \"{\\\"endpoints\\\":[{\\\"url\\\":\\\"https:\\\\\/\\\\\/a.nel.cloudflare.com\\\\\/report\\\\\/v3?s=ELw%2Fw2HVrcdK7%2F%2BGdREpQwYUm5d59XXvNUz8AHtE0ohD8BRrMMdIP1%2BS4IVSEo22SlZ16ZGcKsMKVBFVCgKNxsKLKvbZl%2Bejdsvoej18F7OxAh%2BFJmBXgCoo1w%3D%3D\\\"}],\\\"group\\\":\\\"cf-nel\\\",\\\"max_age\\\":604800}\"\n  ],\n  \"NEL\": [\n    \"{\\\"success_fraction\\\":0,\\\"report_to\\\":\\\"cf-nel\\\",\\\"max_age\\\":604800}\"\n  ],\n  \"Vary\": [\n    \"Accept-Encoding\"\n  ],\n  \"Server\": [\n    \"cloudflare\"\n  ],\n  \"CF-RAY\": [\n    \"7b38d15e7f74ab50-SIN\"\n  ],\n  \"Set-Cookie\": [\n  ]\n}\n \n"},{"result":{"nanos":479084,"millis":0.479084,"status":"passed"},"step":{"line":17,"prefix":"And","index":6,"text":"print responseTime"},"stepLog":"14:26:28.960 [print] 152 \n"},{"result":{"nanos":451916,"millis":0.451916,"status":"passed"},"step":{"line":18,"prefix":"And","index":7,"text":"print responseCookies"},"stepLog":"14:26:28.960 [print] {\n}\n \n"}],"executorName":"main","line":10,"name":"Get demo1","description":"","durationMillis":196.986835,"startTime":1680771388763,"failed":false,"refId":"[2:10]","endTime":1680771388960,"exampleIndex":-1},{"sectionIndex":2,"stepResults":[{"result":{"nanos":141958,"millis":0.141958,"status":"passed"},"step":{"background":true,"line":3,"prefix":"*","index":0,"text":"url 'https:\/\/reqres.in\/api'"}},{"result":{"nanos":70709,"millis":0.070709,"status":"passed"},"step":{"background":true,"line":4,"prefix":"*","index":1,"text":"header Accept = 'application\/json'"}},{"result":{"nanos":271709,"millis":0.271709,"status":"passed"},"step":{"line":22,"prefix":"Given","index":0,"text":"path '\/users\/2'"}},{"result":{"nanos":153553750,"millis":153.55375,"status":"passed"},"step":{"line":23,"prefix":"When","index":1,"text":"method GET"},"stepLog":"14:26:28.964 request:\n1 > GET https:\/\/reqres.in\/api\/users\/2\n1 > Accept: application\/json\n1 > Host: reqres.in\n1 > Connection: Keep-Alive\n1 > User-Agent: Apache-HttpClient\/4.5.14 (Java\/17.0.6)\n1 > Accept-Encoding: gzip,deflate\n\n\n14:26:29.116 response time in milliseconds: 151\n1 < 200\n1 < Date: Thu, 06 Apr 2023 08:56:29 GMT\n1 < Content-Type: application\/json; charset=utf-8\n1 < Transfer-Encoding: chunked\n1 < Connection: keep-alive\n1 < X-Powered-By: Express\n1 < Access-Control-Allow-Origin: *\n1 < Etag: W\/\"118-pbdwwFo9SKNhD3Lx5iHJyngpq00\"\n1 < Via: 1.1 vegur\n1 < Cache-Control: max-age=14400\n1 < CF-Cache-Status: HIT\n1 < Age: 4445\n1 < Report-To: {\"endpoints\":[{\"url\":\"https:\\\/\\\/a.nel.cloudflare.com\\\/report\\\/v3?s=XmjKFehwSStd8uLSkNeAiHbp%2BW5KIfc3CfTstNOSZX7YFi%2BGKAtolS4A7869UniTnkgeiRSKkSLut1hKApac1wiBPyhKlNsQYYUXwqEDwiPGPtpt%2FobKQWM6tA%3D%3D\"}],\"group\":\"cf-nel\",\"max_age\":604800}\n1 < NEL: {\"success_fraction\":0,\"report_to\":\"cf-nel\",\"max_age\":604800}\n1 < Vary: Accept-Encoding\n1 < Server: cloudflare\n1 < CF-RAY: 7b38d15faebfa3e3-SIN\n{\"data\":{\"id\":2,\"email\":\"janet.weaver@reqres.in\",\"first_name\":\"Janet\",\"last_name\":\"Weaver\",\"avatar\":\"https:\/\/reqres.in\/img\/faces\/2-image.jpg\"},\"support\":{\"url\":\"https:\/\/reqres.in\/#support-heading\",\"text\":\"To keep ReqRes free, contributions towards server costs are appreciated!\"}}\n\n"},{"result":{"nanos":7083,"millis":0.007083,"status":"passed"},"step":{"line":24,"prefix":"Then","index":2,"text":"status 200"}}],"executorName":"main","line":21,"name":"Get demo 2","description":"","durationMillis":154.045209,"startTime":1680771388962,"failed":false,"refId":"[3:21]","endTime":1680771389117,"exampleIndex":-1},{"sectionIndex":3,"stepResults":[{"result":{"nanos":160875,"millis":0.160875,"status":"passed"},"step":{"background":true,"line":3,"prefix":"*","index":0,"text":"url 'https:\/\/reqres.in\/api'"}},{"result":{"nanos":98916,"millis":0.098916,"status":"passed"},"step":{"background":true,"line":4,"prefix":"*","index":1,"text":"header Accept = 'application\/json'"}},{"result":{"nanos":301542,"millis":0.301542,"status":"passed"},"step":{"line":28,"prefix":"Given","index":0,"text":"path '\/users'"}},{"result":{"nanos":1841833,"millis":1.841833,"status":"passed"},"step":{"line":29,"prefix":"And","index":1,"text":"param page = 2"}},{"result":{"nanos":145731125,"millis":145.731125,"status":"passed"},"step":{"line":30,"prefix":"When","index":2,"text":"method GET"},"stepLog":"14:26:29.123 request:\n1 > GET https:\/\/reqres.in\/api\/users?page=2\n1 > Accept: application\/json\n1 > Host: reqres.in\n1 > Connection: Keep-Alive\n1 > User-Agent: Apache-HttpClient\/4.5.14 (Java\/17.0.6)\n1 > Accept-Encoding: gzip,deflate\n\n\n14:26:29.267 response time in milliseconds: 143\n1 < 200\n1 < Date: Thu, 06 Apr 2023 08:56:29 GMT\n1 < Content-Type: application\/json; charset=utf-8\n1 < Transfer-Encoding: chunked\n1 < Connection: keep-alive\n1 < X-Powered-By: Express\n1 < Access-Control-Allow-Origin: *\n1 < Etag: W\/\"406-ut0vzoCuidvyMf8arZpMpJ6ZRDw\"\n1 < Via: 1.1 vegur\n1 < Cache-Control: max-age=14400\n1 < CF-Cache-Status: HIT\n1 < Age: 4686\n1 < Report-To: {\"endpoints\":[{\"url\":\"https:\\\/\\\/a.nel.cloudflare.com\\\/report\\\/v3?s=M%2Bp43DDI%2BluM6Qtp%2FDKo39mmmLcT8tEsZqmhnvujkOS%2Fk0IZ2G7TsVwmhDWjurc%2BXxkvsR4vEdbv%2FKtV6st7jXLQWy0wPM0e37qVwntoNhOdIOza4YF5eCZGIA%3D%3D\"}],\"group\":\"cf-nel\",\"max_age\":604800}\n1 < NEL: {\"success_fraction\":0,\"report_to\":\"cf-nel\",\"max_age\":604800}\n1 < Vary: Accept-Encoding\n1 < Server: cloudflare\n1 < CF-RAY: 7b38d160a903ab61-SIN\n{\"page\":2,\"per_page\":6,\"total\":12,\"total_pages\":2,\"data\":[{\"id\":7,\"email\":\"michael.lawson@reqres.in\",\"first_name\":\"Michael\",\"last_name\":\"Lawson\",\"avatar\":\"https:\/\/reqres.in\/img\/faces\/7-image.jpg\"},{\"id\":8,\"email\":\"lindsay.ferguson@reqres.in\",\"first_name\":\"Lindsay\",\"last_name\":\"Ferguson\",\"avatar\":\"https:\/\/reqres.in\/img\/faces\/8-image.jpg\"},{\"id\":9,\"email\":\"tobias.funke@reqres.in\",\"first_name\":\"Tobias\",\"last_name\":\"Funke\",\"avatar\":\"https:\/\/reqres.in\/img\/faces\/9-image.jpg\"},{\"id\":10,\"email\":\"byron.fields@reqres.in\",\"first_name\":\"Byron\",\"last_name\":\"Fields\",\"avatar\":\"https:\/\/reqres.in\/img\/faces\/10-image.jpg\"},{\"id\":11,\"email\":\"george.edwards@reqres.in\",\"first_name\":\"George\",\"last_name\":\"Edwards\",\"avatar\":\"https:\/\/reqres.in\/img\/faces\/11-image.jpg\"},{\"id\":12,\"email\":\"rachel.howell@reqres.in\",\"first_name\":\"Rachel\",\"last_name\":\"Howell\",\"avatar\":\"https:\/\/reqres.in\/img\/faces\/12-image.jpg\"}],\"support\":{\"url\":\"https:\/\/reqres.in\/#support-heading\",\"text\":\"To keep ReqRes free, contributions towards server costs are appreciated!\"}}\n\n"},{"result":{"nanos":7083,"millis":0.007083,"status":"passed"},"step":{"line":31,"prefix":"Then","index":3,"text":"status 200"}}],"executorName":"main","line":27,"name":"Get demo 3","description":"","durationMillis":148.141374,"startTime":1680771389119,"failed":false,"refId":"[4:27]","endTime":1680771389268,"exampleIndex":-1},{"sectionIndex":4,"stepResults":[{"result":{"nanos":185125,"millis":0.185125,"status":"passed"},"step":{"background":true,"line":3,"prefix":"*","index":0,"text":"url 'https:\/\/reqres.in\/api'"}},{"result":{"nanos":117709,"millis":0.117709,"status":"passed"},"step":{"background":true,"line":4,"prefix":"*","index":1,"text":"header Accept = 'application\/json'"}},{"result":{"nanos":56958,"millis":0.056958,"status":"passed"},"step":{"line":35,"prefix":"Given","index":0,"text":"path '\/users'"}},{"result":{"nanos":175667,"millis":0.175667,"status":"passed"},"step":{"line":36,"prefix":"And","index":1,"text":"param page = 2"}},{"result":{"nanos":150283666,"millis":150.283666,"status":"passed"},"step":{"line":37,"prefix":"When","index":2,"text":"method GET"},"stepLog":"14:26:29.271 request:\n1 > GET https:\/\/reqres.in\/api\/users?page=2\n1 > Accept: application\/json\n1 > Host: reqres.in\n1 > Connection: Keep-Alive\n1 > User-Agent: Apache-HttpClient\/4.5.14 (Java\/17.0.6)\n1 > Accept-Encoding: gzip,deflate\n\n\n14:26:29.420 response time in milliseconds: 148\n1 < 200\n1 < Date: Thu, 06 Apr 2023 08:56:29 GMT\n1 < Content-Type: application\/json; charset=utf-8\n1 < Transfer-Encoding: chunked\n1 < Connection: keep-alive\n1 < X-Powered-By: Express\n1 < Access-Control-Allow-Origin: *\n1 < Etag: W\/\"406-ut0vzoCuidvyMf8arZpMpJ6ZRDw\"\n1 < Via: 1.1 vegur\n1 < Cache-Control: max-age=14400\n1 < CF-Cache-Status: HIT\n1 < Age: 4686\n1 < Report-To: {\"endpoints\":[{\"url\":\"https:\\\/\\\/a.nel.cloudflare.com\\\/report\\\/v3?s=AwYKxP4lq%2FGRLUsVtMBELBLxC7PjqC4leIixLhU0mFGDgMJvNGYirPukeQvcgf8Nx75B%2FYVpbVx5w66XTRibDWLVZH7WTk%2BmKx7iJCFzMo0bcF%2FhKqJK4u8K9g%3D%3D\"}],\"group\":\"cf-nel\",\"max_age\":604800}\n1 < NEL: {\"success_fraction\":0,\"report_to\":\"cf-nel\",\"max_age\":604800}\n1 < Vary: Accept-Encoding\n1 < Server: cloudflare\n1 < CF-RAY: 7b38d16198ef18f8-SIN\n{\"page\":2,\"per_page\":6,\"total\":12,\"total_pages\":2,\"data\":[{\"id\":7,\"email\":\"michael.lawson@reqres.in\",\"first_name\":\"Michael\",\"last_name\":\"Lawson\",\"avatar\":\"https:\/\/reqres.in\/img\/faces\/7-image.jpg\"},{\"id\":8,\"email\":\"lindsay.ferguson@reqres.in\",\"first_name\":\"Lindsay\",\"last_name\":\"Ferguson\",\"avatar\":\"https:\/\/reqres.in\/img\/faces\/8-image.jpg\"},{\"id\":9,\"email\":\"tobias.funke@reqres.in\",\"first_name\":\"Tobias\",\"last_name\":\"Funke\",\"avatar\":\"https:\/\/reqres.in\/img\/faces\/9-image.jpg\"},{\"id\":10,\"email\":\"byron.fields@reqres.in\",\"first_name\":\"Byron\",\"last_name\":\"Fields\",\"avatar\":\"https:\/\/reqres.in\/img\/faces\/10-image.jpg\"},{\"id\":11,\"email\":\"george.edwards@reqres.in\",\"first_name\":\"George\",\"last_name\":\"Edwards\",\"avatar\":\"https:\/\/reqres.in\/img\/faces\/11-image.jpg\"},{\"id\":12,\"email\":\"rachel.howell@reqres.in\",\"first_name\":\"Rachel\",\"last_name\":\"Howell\",\"avatar\":\"https:\/\/reqres.in\/img\/faces\/12-image.jpg\"}],\"support\":{\"url\":\"https:\/\/reqres.in\/#support-heading\",\"text\":\"To keep ReqRes free, contributions towards server costs are appreciated!\"}}\n\n"},{"result":{"nanos":8708,"millis":0.008708,"status":"passed"},"step":{"line":38,"prefix":"Then","index":3,"text":"status 200"}},{"result":{"nanos":27431250,"millis":27.43125,"status":"passed"},"step":{"line":39,"prefix":"And","index":4,"text":"match response.data[0].first_name != null"}},{"result":{"nanos":694750,"millis":0.69475,"status":"passed"},"step":{"line":40,"prefix":"And","index":5,"text":"match $.data[1].id == '#number'"}},{"result":{"nanos":351083,"millis":0.351083,"status":"passed"},"step":{"line":41,"prefix":"And","index":6,"text":"match $.data[3].last_name == '#string'"}}],"executorName":"main","line":34,"name":"Get demo 4","description":"","durationMillis":179.304916,"startTime":1680771389270,"failed":false,"refId":"[5:34]","endTime":1680771389450,"exampleIndex":-1},{"sectionIndex":5,"stepResults":[{"result":{"nanos":123041,"millis":0.123041,"status":"passed"},"step":{"background":true,"line":3,"prefix":"*","index":0,"text":"url 'https:\/\/reqres.in\/api'"}},{"result":{"nanos":71167,"millis":0.071167,"status":"passed"},"step":{"background":true,"line":4,"prefix":"*","index":1,"text":"header Accept = 'application\/json'"}},{"result":{"nanos":4448125,"millis":4.448125,"status":"passed"},"step":{"line":44,"prefix":"Given","index":0,"text":"path '\/users', id"}},{"result":{"nanos":158086958,"millis":158.086958,"status":"passed"},"step":{"line":45,"prefix":"When","index":1,"text":"method GET"},"stepLog":"14:26:29.459 request:\n1 > GET https:\/\/reqres.in\/api\/users\/3\n1 > Accept: application\/json\n1 > Host: reqres.in\n1 > Connection: Keep-Alive\n1 > User-Agent: Apache-HttpClient\/4.5.14 (Java\/17.0.6)\n1 > Accept-Encoding: gzip,deflate\n\n\n14:26:29.615 response time in milliseconds: 156\n1 < 200\n1 < Date: Thu, 06 Apr 2023 08:56:29 GMT\n1 < Content-Type: application\/json; charset=utf-8\n1 < Transfer-Encoding: chunked\n1 < Connection: keep-alive\n1 < X-Powered-By: Express\n1 < Access-Control-Allow-Origin: *\n1 < Etag: W\/\"112-EeInfgHWtnxhYRnwgZUB667e024\"\n1 < Via: 1.1 vegur\n1 < Cache-Control: max-age=14400\n1 < CF-Cache-Status: HIT\n1 < Age: 1835\n1 < Report-To: {\"endpoints\":[{\"url\":\"https:\\\/\\\/a.nel.cloudflare.com\\\/report\\\/v3?s=0pAQXIyreQuzYiA3vl7P2XaME%2F9p20jfzTPafjqPs8EbCWIB8G9jycBPGKV28B4Ce61clgFNpKxsxfZvVosAAgKywCALDa4aHP3F82vd8kOxxi%2FwomyW4lYKdw%3D%3D\"}],\"group\":\"cf-nel\",\"max_age\":604800}\n1 < NEL: {\"success_fraction\":0,\"report_to\":\"cf-nel\",\"max_age\":604800}\n1 < Vary: Accept-Encoding\n1 < Server: cloudflare\n1 < CF-RAY: 7b38d162de02a3dc-SIN\n{\"data\":{\"id\":3,\"email\":\"emma.wong@reqres.in\",\"first_name\":\"Emma\",\"last_name\":\"Wong\",\"avatar\":\"https:\/\/reqres.in\/img\/faces\/3-image.jpg\"},\"support\":{\"url\":\"https:\/\/reqres.in\/#support-heading\",\"text\":\"To keep ReqRes free, contributions towards server costs are appreciated!\"}}\n\n"},{"result":{"nanos":7500,"millis":0.0075,"status":"passed"},"step":{"line":46,"prefix":"Then","index":2,"text":"status 200"}}],"line":49,"description":"","durationMillis":162.736791,"failed":false,"executorName":"main","name":"GET demo 5","startTime":1680771389453,"refId":"[6.1:49]","endTime":1680771389616,"exampleData":{"id":"3"},"exampleIndex":0},{"sectionIndex":5,"stepResults":[{"result":{"nanos":164416,"millis":0.164416,"status":"passed"},"step":{"background":true,"line":3,"prefix":"*","index":0,"text":"url 'https:\/\/reqres.in\/api'"}},{"result":{"nanos":104375,"millis":0.104375,"status":"passed"},"step":{"background":true,"line":4,"prefix":"*","index":1,"text":"header Accept = 'application\/json'"}},{"result":{"nanos":230625,"millis":0.230625,"status":"passed"},"step":{"line":44,"prefix":"Given","index":0,"text":"path '\/users', id"}},{"result":{"nanos":520916750,"millis":520.91675,"status":"passed"},"step":{"line":45,"prefix":"When","index":1,"text":"method GET"},"stepLog":"14:26:29.621 request:\n1 > GET https:\/\/reqres.in\/api\/users\/4\n1 > Accept: application\/json\n1 > Host: reqres.in\n1 > Connection: Keep-Alive\n1 > User-Agent: Apache-HttpClient\/4.5.14 (Java\/17.0.6)\n1 > Accept-Encoding: gzip,deflate\n\n\n14:26:30.140 response time in milliseconds: 517\n1 < 200\n1 < Date: Thu, 06 Apr 2023 08:56:30 GMT\n1 < Content-Type: application\/json; charset=utf-8\n1 < Transfer-Encoding: chunked\n1 < Connection: keep-alive\n1 < X-Powered-By: Express\n1 < Access-Control-Allow-Origin: *\n1 < Etag: W\/\"110-Xdg3LtI+q2zMxihHlfeIZQo\/bvY\"\n1 < Via: 1.1 vegur\n1 < Cache-Control: max-age=14400\n1 < CF-Cache-Status: REVALIDATED\n1 < Report-To: {\"endpoints\":[{\"url\":\"https:\\\/\\\/a.nel.cloudflare.com\\\/report\\\/v3?s=h3XLRG3X6OwAHoTz4t511gcdcLR8F2sfdhZmVkltSRf%2Bp2BWackcwKGWtyVUOH%2F%2F8bto0ChacYed1G08SKfYOELogDDtcG7biflmZl9XOpA3bWN1CWHNeDXVxw%3D%3D\"}],\"group\":\"cf-nel\",\"max_age\":604800}\n1 < NEL: {\"success_fraction\":0,\"report_to\":\"cf-nel\",\"max_age\":604800}\n1 < Vary: Accept-Encoding\n1 < Server: cloudflare\n1 < CF-RAY: 7b38d163cf97a3e8-SIN\n{\"data\":{\"id\":4,\"email\":\"eve.holt@reqres.in\",\"first_name\":\"Eve\",\"last_name\":\"Holt\",\"avatar\":\"https:\/\/reqres.in\/img\/faces\/4-image.jpg\"},\"support\":{\"url\":\"https:\/\/reqres.in\/#support-heading\",\"text\":\"To keep ReqRes free, contributions towards server costs are appreciated!\"}}\n\n"},{"result":{"nanos":11833,"millis":0.011833,"status":"passed"},"step":{"line":46,"prefix":"Then","index":2,"text":"status 200"}}],"line":50,"description":"","durationMillis":521.427999,"failed":false,"executorName":"main","name":"GET demo 5","startTime":1680771389619,"refId":"[6.2:50]","endTime":1680771390141,"exampleData":{"id":"4"},"exampleIndex":1},{"sectionIndex":5,"stepResults":[{"result":{"nanos":224583,"millis":0.224583,"status":"passed"},"step":{"background":true,"line":3,"prefix":"*","index":0,"text":"url 'https:\/\/reqres.in\/api'"}},{"result":{"nanos":143666,"millis":0.143666,"status":"passed"},"step":{"background":true,"line":4,"prefix":"*","index":1,"text":"header Accept = 'application\/json'"}},{"result":{"nanos":267792,"millis":0.267792,"status":"passed"},"step":{"line":44,"prefix":"Given","index":0,"text":"path '\/users', id"}},{"result":{"nanos":552593625,"millis":552.593625,"status":"passed"},"step":{"line":45,"prefix":"When","index":1,"text":"method GET"},"stepLog":"14:26:30.147 request:\n1 > GET https:\/\/reqres.in\/api\/users\/5\n1 > Accept: application\/json\n1 > Host: reqres.in\n1 > Connection: Keep-Alive\n1 > User-Agent: Apache-HttpClient\/4.5.14 (Java\/17.0.6)\n1 > Accept-Encoding: gzip,deflate\n\n\n14:26:30.698 response time in milliseconds: 550\n1 < 200\n1 < Date: Thu, 06 Apr 2023 08:56:30 GMT\n1 < Content-Type: application\/json; charset=utf-8\n1 < Transfer-Encoding: chunked\n1 < Connection: keep-alive\n1 < X-Powered-By: Express\n1 < Access-Control-Allow-Origin: *\n1 < Etag: W\/\"11c-fbAvBCQSZgUU6dvLRqxYG0dwUTM\"\n1 < Via: 1.1 vegur\n1 < Cache-Control: max-age=14400\n1 < CF-Cache-Status: REVALIDATED\n1 < Report-To: {\"endpoints\":[{\"url\":\"https:\\\/\\\/a.nel.cloudflare.com\\\/report\\\/v3?s=Gthu2P8VmlPvt6XWUSSTQuwcvwPx6xb2E5An1nhH0eJ0K69MeJ9Gw3N7hohzdY3KCPpzc8GVJ7zfMbT9ZSw9zvbMNVeW8UaPVLudshG3svFk9QCx42RWfmDZLA%3D%3D\"}],\"group\":\"cf-nel\",\"max_age\":604800}\n1 < NEL: {\"success_fraction\":0,\"report_to\":\"cf-nel\",\"max_age\":604800}\n1 < Vary: Accept-Encoding\n1 < Server: cloudflare\n1 < CF-RAY: 7b38d1671c51ab4f-SIN\n{\"data\":{\"id\":5,\"email\":\"charles.morris@reqres.in\",\"first_name\":\"Charles\",\"last_name\":\"Morris\",\"avatar\":\"https:\/\/reqres.in\/img\/faces\/5-image.jpg\"},\"support\":{\"url\":\"https:\/\/reqres.in\/#support-heading\",\"text\":\"To keep ReqRes free, contributions towards server costs are appreciated!\"}}\n\n"},{"result":{"nanos":9458,"millis":0.009458,"status":"passed"},"step":{"line":46,"prefix":"Then","index":2,"text":"status 200"}}],"line":51,"description":"","durationMillis":553.239124,"failed":false,"executorName":"main","name":"GET demo 5","startTime":1680771390145,"refId":"[6.3:51]","endTime":1680771390699,"exampleData":{"id":"5"},"exampleIndex":2}],"callDepth":0,"name":"Test demo API","description":"","resultDate":"2023-04-06 02:26:30 pm","durationMillis":2314.903166,"passedCount":8}